#VRML V2.0 utf8
DEF TXFM_1 Transform {
  center 0 0 0
  rotation 0 0 1 0
  scale 1 1 1
  scaleOrientation 0 0 1 0
  translation 0 0 0
 children [
DEF TXFM_2 Transform {
  center 0 0 0
  rotation 0 0 1 0
  scale 1 1 1
  scaleOrientation 0 0 1 0
  translation 0 0 0
 children [
DEF TXFM_3 Transform {
  center 0 0 0
  rotation 1 0 0 1.5707963
  scale 1 1 1
  scaleOrientation 0 0 1 0
  translation 0 0 0.26771654
 children [
DEF SHAPE_1 Shape {
 appearance DEF APP_1 Appearance {
  material Material {
   ambientIntensity 0.36428547
   diffuseColor 0.27451 0.27451 0.27451
   emissiveColor 0 0 0
   shininess 0.1
   specularColor 0.12 0.12 0.12
   transparency 0
} }
 geometry DEF FACE_1 IndexedFaceSet {
  coord DEF COORD_1 Coordinate { point [
  -0.800787 -0.21653543 0.91889723,-0.800787 -0.21653543 -0.91889723,
  0.800787 -0.21653543 0.91889723,0.800787 -0.21653543 -0.91889723] }
 coordIndex [
  3,0,1,-1,3,2,0,-1]
  normalPerVertex TRUE
  normal DEF NORM_1 Normal { vector [
  0 -1 0,0 -1 0,
  0 -1 0,0 -1 0] }
}
}
DEF SHAPE_2 Shape {
 appearance USE APP_1
 geometry DEF FACE_2 IndexedFaceSet {
  coord DEF COORD_2 Coordinate { point [
  -0.800787 -0.21653543 -0.91889723,-0.83929674 -0.18535085 -0.91889723,
  -0.81137439 -0.21508514 -0.91889723,-0.82118176 -0.21084111 -0.91889723,
  -0.82948655 -0.20411603 -0.91889723,-0.8356769 -0.19540536 -0.91889723,
  -0.800787 -0.21653543 0.91889723,-0.83929674 -0.18535085 0.91889723,
  -0.8356769 -0.19540536 0.91889723,-0.82948655 -0.20411603 0.91889723,
  -0.82118176 -0.21084111 0.91889723,-0.81137439 -0.21508514 0.91889723] }
 coordIndex [
  2,0,6,-1,2,6,11,-1,3,11,10,-1,3,2,11,-1,4,10,9,-1,4,3,10,-1,5,9,8,-1,5,4,9,-1,
  1,8,7,-1,1,5,8,-1]
  normalPerVertex TRUE
  normal DEF NORM_2 Normal { vector [
  -0.13571557 -0.99074784 0,-0.94088077 -0.33873792 0,
  -0.22470674 -0.97442644 0,-0.4784717 -0.87810297 0,
  -0.69698533 -0.71708539 0,-0.86414865 -0.50323663 0,
  -0.13571557 -0.99074784 0,-0.94088077 -0.33873792 0,
  -0.90641372 -0.42239101 0,-0.75943445 -0.65058382 0,
  -0.55650395 -0.83084496 0,-0.3125731 -0.94989371 0] }
}
}
DEF SHAPE_3 Shape {
 appearance USE APP_1
 geometry DEF FACE_3 IndexedFaceSet {
  coord DEF COORD_3 Coordinate { point [
  -0.83929674 -0.18535085 0.91889723,-0.83929674 -0.18535085 -0.91889723,
  -0.86613253 -0.059098406 -0.94573302,-0.86614173 -0.059055118 -0.94488189,
  -0.86614173 -0.059055118 0.94488189,-0.86613253 -0.059098406 0.94573302] }
 coordIndex [
  3,2,1,-1,4,1,0,-1,4,3,1,-1,5,4,0,-1]
  normalPerVertex TRUE
  normal DEF NORM_3 Normal { vector [
  -0.9781476 -0.20791169 0,-0.9781476 -0.20791169 0,
  -0.9781476 -0.20791169 0,-0.9781476 -0.20791169 0,
  -0.9781476 -0.20791169 0,-0.9781476 -0.20791169 0] }
}
}
DEF SHAPE_4 Shape {
 appearance USE APP_1
 geometry DEF FACE_4 IndexedFaceSet {
  coord DEF COORD_4 Coordinate { point [
  -0.83929674 -0.18535085 -0.91889723,-0.800787 -0.18535085 -0.95740698,
  -0.83701232 -0.18732963 -0.93049106,-0.83137294 -0.18836705 -0.94101114,
  -0.8229009 -0.18836705 -0.94948318,-0.81238082 -0.18732963 -0.95512255,
  -0.86613253 -0.059098406 -0.94573302,-0.82762278 -0.059098406 -0.98424277,
  -0.86465312 -0.059971128 -0.95560559,-0.86072278 -0.060520034 -0.96481487,
  -0.8546105 -0.060706531 -0.97272074,-0.84670464 -0.060520034 -0.97883302,
  -0.83749535 -0.059971128 -0.98276335] }
 coordIndex [
  0,6,8,-1,2,8,9,-1,2,0,8,-1,3,9,10,-1,3,2,9,-1,4,10,11,-1,4,3,10,-1,5,11,12,-1,
  5,4,11,-1,1,12,7,-1,1,5,12,-1]
  normalPerVertex TRUE
  normal DEF NORM_4 Normal { vector [
  -0.96225097 -0.23486493 -0.13751924,-0.13751924 -0.23486493 -0.96225097,
  -0.91197762 -0.26227212 -0.3154523,-0.77198222 -0.28640961 -0.56746188,
  -0.56746188 -0.28640961 -0.77198222,-0.3154523 -0.26227212 -0.91197762,
  -0.96488892 -0.2314775 -0.12412709,-0.12412709 -0.2314775 -0.96488892,
  -0.94617828 -0.24605606 -0.2102453,-0.84314117 -0.2771026 -0.46078966,
  -0.67720292 -0.28773668 -0.67720292,-0.46078966 -0.2771026 -0.84314117,
  -0.2102453 -0.24605606 -0.94617828] }
}
}
DEF SHAPE_5 Shape {
 appearance USE APP_1
 geometry DEF FACE_5 IndexedFaceSet {
  coord DEF COORD_5 Coordinate { point [
  0.82762278 -0.059098406 -0.98424277,0.800787 -0.18535085 -0.95740698,
  0.82677165 -0.059055118 -0.98425197,-0.82677165 -0.059055118 -0.98425197,
  -0.82762278 -0.059098406 -0.98424277,-0.800787 -0.18535085 -0.95740698] }
 coordIndex [
  2,0,1,-1,3,1,5,-1,3,2,1,-1,4,3,5,-1]
  normalPerVertex TRUE
  normal DEF NORM_5 Normal { vector [
  0 -0.20791169 -0.9781476,0 -0.20791169 -0.9781476,
  0 -0.20791169 -0.9781476,0 -0.20791169 -0.9781476,
  0 -0.20791169 -0.9781476,0 -0.20791169 -0.9781476] }
}
}
DEF SHAPE_6 Shape {
 appearance USE APP_1
 geometry DEF FACE_6 IndexedFaceSet {
  coord DEF COORD_6 Coordinate { point [
  0.800787 -0.18535085 -0.95740698,0.83929674 -0.18535085 -0.91889723,
  0.81238082 -0.18732963 -0.95512255,0.8229009 -0.18836705 -0.94948318,
  0.83137294 -0.18836705 -0.94101114,0.83701232 -0.18732963 -0.93049106,
  0.82762278 -0.059098406 -0.98424277,0.86613253 -0.059098406 -0.94573302,
  0.83749535 -0.059971128 -0.98276335,0.84670464 -0.060520034 -0.97883302,
  0.8546105 -0.060706531 -0.97272074,0.86072278 -0.060520034 -0.96481487,
  0.86465312 -0.059971128 -0.95560559] }
 coordIndex [
  0,6,8,-1,2,8,9,-1,2,0,8,-1,3,9,10,-1,3,2,9,-1,4,10,11,-1,4,3,10,-1,5,11,12,-1,
  5,4,11,-1,1,12,7,-1,1,5,12,-1]
  normalPerVertex TRUE
  normal DEF NORM_6 Normal { vector [
  0.13751924 -0.23486493 -0.96225097,0.96225097 -0.23486493 -0.13751924,
  0.3154523 -0.26227212 -0.91197762,0.56746188 -0.28640961 -0.77198222,
  0.77198222 -0.28640961 -0.56746188,0.91197762 -0.26227212 -0.3154523,
  0.12412709 -0.2314775 -0.96488892,0.96488892 -0.2314775 -0.12412709,
  0.2102453 -0.24605606 -0.94617828,0.46078966 -0.2771026 -0.84314117,
  0.67720292 -0.28773668 -0.67720292,0.84314117 -0.2771026 -0.46078966,
  0.94617828 -0.24605606 -0.2102453] }
}
}
DEF SHAPE_7 Shape {
 appearance USE APP_1
 geometry DEF FACE_7 IndexedFaceSet {
  coord DEF COORD_7 Coordinate { point [
  0.86613253 -0.059098406 -0.94573302,0.83929674 -0.18535085 -0.91889723,
  0.83929674 -0.18535085 0.91889723,0.86613253 -0.059098406 0.94573302,
  0.86614173 -0.059055118 0.94488189,0.86614173 -0.059055118 -0.94488189] }
 coordIndex [
  4,3,2,-1,5,2,1,-1,5,4,2,-1,0,5,1,-1]
  normalPerVertex TRUE
  normal DEF NORM_7 Normal { vector [
  0.9781476 -0.20791169 0,0.9781476 -0.20791169 0,
  0.9781476 -0.20791169 0,0.9781476 -0.20791169 0,
  0.9781476 -0.20791169 0,0.9781476 -0.20791169 0] }
}
}
DEF SHAPE_8 Shape {
 appearance USE APP_1
 geometry DEF FACE_8 IndexedFaceSet {
  coord DEF COORD_8 Coordinate { point [
  0.83929674 -0.18535085 -0.91889723,0.800787 -0.21653543 -0.91889723,
  0.8356769 -0.19540536 -0.91889723,0.82948655 -0.20411603 -0.91889723,
  0.82118176 -0.21084111 -0.91889723,0.81137439 -0.21508514 -0.91889723,
  0.83929674 -0.18535085 0.91889723,0.800787 -0.21653543 0.91889723,
  0.81137439 -0.21508514 0.91889723,0.82118176 -0.21084111 0.91889723,
  0.82948655 -0.20411603 0.91889723,0.8356769 -0.19540536 0.91889723] }
 coordIndex [
  8,1,5,-1,8,7,1,-1,9,5,4,-1,9,8,5,-1,10,4,3,-1,10,9,4,-1,11,3,2,-1,11,10,3,-1,
  6,2,0,-1,6,11,2,-1]
  normalPerVertex TRUE
  normal DEF NORM_8 Normal { vector [
  0.94088077 -0.33873792 0,0.13571557 -0.99074784 0,
  0.90641372 -0.42239101 0,0.75943445 -0.65058382 0,
  0.55650395 -0.83084496 0,0.3125731 -0.94989371 0,
  0.94088077 -0.33873792 0,0.13571557 -0.99074784 0,
  0.22470674 -0.97442644 0,0.4784717 -0.87810297 0,
  0.69698533 -0.71708539 0,0.86414865 -0.50323663 0] }
}
}
DEF SHAPE_9 Shape {
 appearance USE APP_1
 geometry DEF FACE_9 IndexedFaceSet {
  coord DEF COORD_9 Coordinate { point [
  0.800787 -0.21653543 0.91889723,0.83929674 -0.18535085 0.91889723,
  0.81137439 -0.21508514 0.91889723,0.82118176 -0.21084111 0.91889723,
  0.82948655 -0.20411603 0.91889723,0.8356769 -0.19540536 0.91889723,
  0.800787 -0.18535085 0.95740698,0.83701232 -0.18732963 0.93049106,
  0.83137294 -0.18836705 0.94101114,0.8229009 -0.18836705 0.94948318,
  0.81238082 -0.18732963 0.95512255,0.800787 -0.19540536 0.95378714,
  0.800787 -0.20411603 0.94759679,0.800787 -0.21084111 0.939292,
  0.800787 -0.21508514 0.92948463,0.81093203 -0.19258206 0.95367376,
  0.80636792 -0.20178377 0.94910965,0.81907643 -0.1995109 0.9456587,
  0.82977628 -0.19415558 0.93941447,0.81296925 -0.20839028 0.93955153,
  0.82474632 -0.20429647 0.93438452,0.80519827 -0.21410536 0.93178054,
  0.83354204 -0.19744141 0.92702078,0.81771764 -0.21168793 0.92735583,
  0.82800047 -0.20549844 0.92147921] }
 coordIndex [
  5,1,7,-1,15,9,10,-1,15,10,6,-1,15,6,11,-1,16,11,12,-1,16,12,13,-1,16,15,11,-1,17,15,16,-1,
  17,9,15,-1,18,7,8,-1,18,8,9,-1,18,9,17,-1,19,16,13,-1,19,17,16,-1,20,17,19,-1,20,18,17,-1,
  21,0,2,-1,21,13,14,-1,21,14,0,-1,21,19,13,-1,22,4,5,-1,22,18,20,-1,22,7,18,-1,22,5,7,-1,
  23,2,3,-1,23,20,19,-1,23,21,2,-1,23,19,21,-1,24,3,4,-1,24,23,3,-1,24,4,22,-1,24,22,20,-1,
  24,20,23,-1]
  normalPerVertex TRUE
  normal DEF NORM_9 Normal { vector [
  0.137816 -0.98082287 0.137816,0.93331633 -0.33601455 0.12654982,
  0.24444386 -0.95896501 0.14364301,0.50517828 -0.85845865 0.088564372,
  0.77625569 -0.62767821 0.058712673,0.90130174 -0.41670486 0.11837324,
  0.11614641 -0.32210992 0.93955054,0.89157613 -0.37189871 0.25842474,
  0.7583963 -0.35921056 0.54387759,0.53078372 -0.40855589 0.74252995,
  0.27914216 -0.32612231 0.90317434,0.10177145 -0.4526961 0.88583792,
  0.088119845 -0.68188414 0.72613285,0.13203801 -0.82068939 0.55590906,
  0.073761192 -0.96053885 0.26818727,0.27366586 -0.42910724 0.86079845,
  0.20671409 -0.65140424 0.73002863,0.46641847 -0.56778274 0.67828945,
  0.71840627 -0.47463516 0.50854095,0.31714821 -0.79221243 0.52136022,
  0.60708919 -0.68938037 0.3952182,0.197124 -0.93921319 0.28110623,
  0.80698187 -0.53183473 0.25677243,0.42472699 -0.86878359 0.25460177,
  0.650444 -0.73547268 0.18974334] }
}
}
DEF SHAPE_10 Shape {
 appearance USE APP_1
 geometry DEF FACE_10 IndexedFaceSet {
  coord DEF COORD_10 Coordinate { point [
  0.800787 -0.18535085 0.95740698,0.800787 -0.21653543 0.91889723,
  0.800787 -0.19540536 0.95378714,0.800787 -0.20411603 0.94759679,
  0.800787 -0.21084111 0.939292,0.800787 -0.21508514 0.92948463,
  -0.800787 -0.18535085 0.95740698,-0.800787 -0.21653543 0.91889723,
  -0.800787 -0.21508514 0.92948463,-0.800787 -0.21084111 0.939292,
  -0.800787 -0.20411603 0.94759679,-0.800787 -0.19540536 0.95378714] }
 coordIndex [
  8,1,5,-1,8,7,1,-1,9,5,4,-1,9,8,5,-1,10,4,3,-1,10,9,4,-1,11,3,2,-1,11,10,3,-1,
  6,2,0,-1,6,11,2,-1]
  normalPerVertex TRUE
  normal DEF NORM_10 Normal { vector [
  0 -0.33873792 0.94088077,0 -0.99074784 0.13571557,
  0 -0.42239101 0.90641372,0 -0.65058382 0.75943445,
  0 -0.83084496 0.55650395,0 -0.94989371 0.3125731,
  0 -0.33873792 0.94088077,0 -0.99074784 0.13571557,
  0 -0.97442644 0.22470674,0 -0.87810297 0.4784717,
  0 -0.71708539 0.69698533,0 -0.50323663 0.86414865] }
}
}
DEF SHAPE_11 Shape {
 appearance USE APP_1
 geometry DEF FACE_11 IndexedFaceSet {
  coord DEF COORD_11 Coordinate { point [
  -0.800787 -0.18535085 0.95740698,-0.83929674 -0.18535085 0.91889723,
  -0.81238082 -0.18732963 0.95512255,-0.8229009 -0.18836705 0.94948318,
  -0.83137294 -0.18836705 0.94101114,-0.83701232 -0.18732963 0.93049106,
  -0.800787 -0.21653543 0.91889723,-0.8356769 -0.19540536 0.91889723,
  -0.82948655 -0.20411603 0.91889723,-0.82118176 -0.21084111 0.91889723,
  -0.81137439 -0.21508514 0.91889723,-0.800787 -0.21508514 0.92948463,
  -0.800787 -0.21084111 0.939292,-0.800787 -0.20411603 0.94759679,
  -0.800787 -0.19540536 0.95378714,-0.83556352 -0.19258206 0.92904226,
  -0.83099941 -0.20178377 0.92447815,-0.82754847 -0.1995109 0.93718666,
  -0.82130424 -0.19415558 0.94788651,-0.82144129 -0.20839028 0.93107949,
  -0.81627428 -0.20429647 0.94285656,-0.81367031 -0.21410536 0.9233085,
  -0.80891054 -0.19744141 0.95165228,-0.8092456 -0.21168793 0.93582787,
  -0.80336897 -0.20549844 0.9461107] }
 coordIndex [
  14,0,2,-1,15,4,5,-1,15,5,1,-1,15,1,7,-1,16,7,8,-1,16,8,9,-1,16,15,7,-1,17,4,15,-1,
  17,15,16,-1,18,2,3,-1,18,3,4,-1,18,4,17,-1,19,17,16,-1,19,16,9,-1,20,17,19,-1,20,18,17,-1,
  21,9,10,-1,21,10,6,-1,21,6,11,-1,21,19,9,-1,22,13,14,-1,22,18,20,-1,22,2,18,-1,22,14,2,-1,
  23,11,12,-1,23,21,11,-1,23,19,21,-1,23,20,19,-1,24,12,13,-1,24,23,12,-1,24,13,22,-1,24,22,20,-1,
  24,20,23,-1]
  normalPerVertex TRUE
  normal DEF NORM_11 Normal { vector [
  -0.12654982 -0.33601455 0.93331633,-0.93955054 -0.32210992 0.11614641,
  -0.25842474 -0.37189871 0.89157613,-0.54387759 -0.35921056 0.7583963,
  -0.74252995 -0.40855589 0.53078372,-0.90317434 -0.32612231 0.27914216,
  -0.137816 -0.98082287 0.137816,-0.88583792 -0.4526961 0.10177145,
  -0.72613285 -0.68188414 0.088119845,-0.55590906 -0.82068939 0.13203801,
  -0.26818727 -0.96053885 0.073761192,-0.14364301 -0.95896501 0.24444386,
  -0.088564372 -0.85845865 0.50517828,-0.058712673 -0.62767821 0.77625569,
  -0.11837324 -0.41670486 0.90130174,-0.86079845 -0.42910724 0.27366586,
  -0.73002863 -0.65140424 0.20671409,-0.67828945 -0.56778274 0.46641847,
  -0.50854095 -0.47463516 0.71840627,-0.52136022 -0.79221243 0.31714821,
  -0.3952182 -0.68938037 0.60708919,-0.28110623 -0.93921319 0.197124,
  -0.25677243 -0.53183473 0.80698187,-0.25460177 -0.86878359 0.42472699,
  -0.18974334 -0.73547268 0.650444] }
}
}
DEF SHAPE_12 Shape {
 appearance USE APP_1
 geometry DEF FACE_12 IndexedFaceSet {
  coord DEF COORD_12 Coordinate { point [
  -0.800787 -0.18535085 0.95740698,-0.83929674 -0.18535085 0.91889723,
  -0.81238082 -0.18732963 0.95512255,-0.8229009 -0.18836705 0.94948318,
  -0.83137294 -0.18836705 0.94101114,-0.83701232 -0.18732963 0.93049106,
  -0.82762278 -0.059098406 0.98424277,-0.86613253 -0.059098406 0.94573302,
  -0.83749535 -0.059971128 0.98276335,-0.84670464 -0.060520034 0.97883302,
  -0.8546105 -0.060706531 0.97272074,-0.86072278 -0.060520034 0.96481487,
  -0.86465312 -0.059971128 0.95560559] }
 coordIndex [
  0,6,8,-1,2,8,9,-1,2,0,8,-1,3,9,10,-1,3,2,9,-1,4,10,11,-1,4,3,10,-1,5,11,12,-1,
  5,4,11,-1,1,12,7,-1,1,5,12,-1]
  normalPerVertex TRUE
  normal DEF NORM_12 Normal { vector [
  -0.13751924 -0.23486493 0.96225097,-0.96225097 -0.23486493 0.13751924,
  -0.3154523 -0.26227212 0.91197762,-0.56746188 -0.28640961 0.77198222,
  -0.77198222 -0.28640961 0.56746188,-0.91197762 -0.26227212 0.3154523,
  -0.12412709 -0.2314775 0.96488892,-0.96488892 -0.2314775 0.12412709,
  -0.2102453 -0.24605606 0.94617828,-0.46078966 -0.2771026 0.84314117,
  -0.67720292 -0.28773668 0.67720292,-0.84314117 -0.2771026 0.46078966,
  -0.94617828 -0.24605606 0.2102453] }
}
}
DEF SHAPE_13 Shape {
 appearance USE APP_1
 geometry DEF FACE_13 IndexedFaceSet {
  coord DEF COORD_13 Coordinate { point [
  -0.82762278 4.3288366e-05 0.98424277,-0.82677165 0 0.98425197,
  -0.86613253 4.3288366e-05 0.94573302,-0.86465312 0.00091601001 0.95560559,
  -0.86072278 0.0014649161 0.96481487,-0.8546105 0.0016514133 0.97272074,
  -0.84670464 0.0014649161 0.97883302,-0.83749535 0.00091601001 0.98276335,
  -0.86614173 0 0.94488189,-0.86614173 -0.059055118 0.94488189,
  -0.86613253 -0.059098406 0.94573302,-0.82762278 -0.059098406 0.98424277,
  -0.83749535 -0.059971128 0.98276335,-0.84670464 -0.060520034 0.97883302,
  -0.8546105 -0.060706531 0.97272074,-0.86072278 -0.060520034 0.96481487,
  -0.86465312 -0.059971128 0.95560559,-0.82677165 -0.059055118 0.98425197] }
 coordIndex [
  11,1,0,-1,11,17,1,-1,12,0,7,-1,12,11,0,-1,13,7,6,-1,13,12,7,-1,14,6,5,-1,14,13,6,-1,
  15,5,4,-1,15,14,5,-1,16,4,3,-1,16,15,4,-1,10,3,2,-1,10,16,3,-1,9,2,8,-1,9,10,2,-1]
  normalPerVertex TRUE
  normal DEF NORM_13 Normal { vector [
  -0.14270941 0 0.98976463,-0.010809976 0 0.99994157,
  -0.99172955 0 0.12834523,-0.97265141 0 0.23226975,
  -0.88304393 0 0.46929034,-0.7364796 0 0.67645975,
  -0.54256197 0 0.84001578,-0.31398141 0 0.94942913,
  -0.99994157 0 0.010809976,-0.99994157 0 0.010809976,
  -0.98976463 0 0.14270941,-0.12834523 0 0.99172955,
  -0.23226975 0 0.97265141,-0.46929034 0 0.88304393,
  -0.67645975 0 0.7364796,-0.84001578 0 0.54256197,
  -0.94942913 0 0.31398141,-0.010809976 0 0.99994157] }
}
}
DEF SHAPE_14 Shape {
 appearance USE APP_1
 geometry DEF FACE_14 IndexedFaceSet {
  coord DEF COORD_14 Coordinate { point [
  0.82677165 0 0.98425197,0.82677165 -0.059055118 0.98425197,
  -0.82677165 -0.059055118 0.98425197,-0.82677165 0 0.98425197] }
 coordIndex [
  0,2,1,-1,0,3,2,-1]
  normalPerVertex TRUE
  normal DEF NORM_14 Normal { vector [
  0 0 1,0 0 1,
  0 0 1,0 0 1] }
}
}
DEF SHAPE_15 Shape {
 appearance USE APP_1
 geometry DEF FACE_15 IndexedFaceSet {
  coord DEF COORD_15 Coordinate { point [
  0.86613253 4.3288366e-05 0.94573302,0.86614173 0 0.94488189,
  0.82762278 4.3288366e-05 0.98424277,0.83749535 0.00091601001 0.98276335,
  0.84670464 0.0014649161 0.97883302,0.8546105 0.0016514133 0.97272074,
  0.86072278 0.0014649161 0.96481487,0.86465312 0.00091601001 0.95560559,
  0.82677165 0 0.98425197,0.82677165 -0.059055118 0.98425197,
  0.82762278 -0.059098406 0.98424277,0.86613253 -0.059098406 0.94573302,
  0.86465312 -0.059971128 0.95560559,0.86072278 -0.060520034 0.96481487,
  0.8546105 -0.060706531 0.97272074,0.84670464 -0.060520034 0.97883302,
  0.83749535 -0.059971128 0.98276335,0.86614173 -0.059055118 0.94488189] }
 coordIndex [
  11,1,0,-1,11,17,1,-1,12,0,7,-1,12,11,0,-1,13,7,6,-1,13,12,7,-1,14,6,5,-1,14,13,6,-1,
  15,5,4,-1,15,14,5,-1,16,4,3,-1,16,15,4,-1,10,3,2,-1,10,16,3,-1,9,2,8,-1,9,10,2,-1]
  normalPerVertex TRUE
  normal DEF NORM_15 Normal { vector [
  0.98976463 0 0.14270941,0.99994157 0 0.010809976,
  0.12834523 0 0.99172955,0.23226975 0 0.97265141,
  0.46929034 0 0.88304393,0.67645975 0 0.7364796,
  0.84001578 0 0.54256197,0.94942913 0 0.31398141,
  0.010809976 0 0.99994157,0.010809976 0 0.99994157,
  0.14270941 0 0.98976463,0.99172955 0 0.12834523,
  0.97265141 0 0.23226975,0.88304393 0 0.46929034,
  0.7364796 0 0.67645975,0.54256197 0 0.84001578,
  0.31398141 0 0.94942913,0.99994157 0 0.010809976] }
}
}
DEF SHAPE_16 Shape {
 appearance USE APP_1
 geometry DEF FACE_16 IndexedFaceSet {
  coord DEF COORD_16 Coordinate { point [
  0.86614173 0 -0.94488189,0.86614173 -0.059055118 -0.94488189,
  0.86614173 -0.059055118 0.94488189,0.86614173 0 0.94488189] }
 coordIndex [
  0,2,1,-1,0,3,2,-1]
  normalPerVertex TRUE
  normal DEF NORM_16 Normal { vector [
  1 0 0,1 0 0,
  1 0 0,1 0 0] }
}
}
DEF SHAPE_17 Shape {
 appearance USE APP_1
 geometry DEF FACE_17 IndexedFaceSet {
  coord DEF COORD_17 Coordinate { point [
  0.82762278 4.3288366e-05 -0.98424277,0.82677165 0 -0.98425197,
  0.86613253 4.3288366e-05 -0.94573302,0.86465312 0.00091601001 -0.95560559,
  0.86072278 0.0014649161 -0.96481487,0.8546105 0.0016514133 -0.97272074,
  0.84670464 0.0014649161 -0.97883302,0.83749535 0.00091601001 -0.98276335,
  0.86614173 0 -0.94488189,0.86614173 -0.059055118 -0.94488189,
  0.86613253 -0.059098406 -0.94573302,0.82762278 -0.059098406 -0.98424277,
  0.83749535 -0.059971128 -0.98276335,0.84670464 -0.060520034 -0.97883302,
  0.8546105 -0.060706531 -0.97272074,0.86072278 -0.060520034 -0.96481487,
  0.86465312 -0.059971128 -0.95560559,0.82677165 -0.059055118 -0.98425197] }
 coordIndex [
  11,1,0,-1,11,17,1,-1,12,0,7,-1,12,11,0,-1,13,7,6,-1,13,12,7,-1,14,6,5,-1,14,13,6,-1,
  15,5,4,-1,15,14,5,-1,16,4,3,-1,16,15,4,-1,10,3,2,-1,10,16,3,-1,9,2,8,-1,9,10,2,-1]
  normalPerVertex TRUE
  normal DEF NORM_17 Normal { vector [
  0.14270941 0 -0.98976463,0.010809976 0 -0.99994157,
  0.99172955 0 -0.12834523,0.97265141 0 -0.23226975,
  0.88304393 0 -0.46929034,0.7364796 0 -0.67645975,
  0.54256197 0 -0.84001578,0.31398141 0 -0.94942913,
  0.99994157 0 -0.010809976,0.99994157 0 -0.010809976,
  0.98976463 0 -0.14270941,0.12834523 0 -0.99172955,
  0.23226975 0 -0.97265141,0.46929034 0 -0.88304393,
  0.67645975 0 -0.7364796,0.84001578 0 -0.54256197,
  0.94942913 0 -0.31398141,0.010809976 0 -0.99994157] }
}
}
DEF SHAPE_18 Shape {
 appearance USE APP_1
 geometry DEF FACE_18 IndexedFaceSet {
  coord DEF COORD_18 Coordinate { point [
  0.82677165 0 -0.98425197,0.82677165 -0.059055118 -0.98425197,
  -0.82677165 0 -0.98425197,-0.82677165 -0.059055118 -0.98425197] }
 coordIndex [
  2,0,1,-1,2,1,3,-1]
  normalPerVertex TRUE
  normal DEF NORM_18 Normal { vector [
  0 0 -1,0 0 -1,
  0 0 -1,0 0 -1] }
}
}
DEF SHAPE_19 Shape {
 appearance USE APP_1
 geometry DEF FACE_19 IndexedFaceSet {
  coord DEF COORD_19 Coordinate { point [
  0.82762278 4.3288366e-05 -0.98424277,0.82677165 0 -0.98425197,
  0.79660281 0.14598078 -0.9532228,-0.79660281 0.14598078 -0.9532228,
  -0.82762278 4.3288366e-05 -0.98424277,-0.82677165 0 -0.98425197] }
 coordIndex [
  2,0,1,-1,3,5,4,-1,3,1,5,-1,3,2,1,-1]
  normalPerVertex TRUE
  normal DEF NORM_19 Normal { vector [
  0 0.20791169 -0.9781476,0 0.20791169 -0.9781476,
  0 0.20791169 -0.9781476,0 0.20791169 -0.9781476,
  0 0.20791169 -0.9781476,0 0.20791169 -0.9781476] }
}
}
DEF SHAPE_20 Shape {
 appearance USE APP_1
 geometry DEF FACE_20 IndexedFaceSet {
  coord DEF COORD_20 Coordinate { point [
  0.83511256 0.14598078 -0.91471305,0.79660281 0.14598078 -0.9532228,
  0.83282813 0.14795955 -0.92630687,0.82718876 0.14899698 -0.93682696,
  0.81871672 0.14899698 -0.945299,0.80819664 0.14795955 -0.95093837,
  0.86613253 4.3288366e-05 -0.94573302,0.82762278 4.3288366e-05 -0.98424277,
  0.86465312 0.00091601001 -0.95560559,0.86072278 0.0014649161 -0.96481487,
  0.8546105 0.0016514133 -0.97272074,0.84670464 0.0014649161 -0.97883302,
  0.83749535 0.00091601001 -0.98276335] }
 coordIndex [
  12,1,5,-1,12,7,1,-1,11,5,4,-1,11,12,5,-1,10,4,3,-1,10,11,4,-1,9,3,2,-1,9,10,3,-1,
  8,2,0,-1,8,9,2,-1,6,8,0,-1]
  normalPerVertex TRUE
  normal DEF NORM_20 Normal { vector [
  0.96228099 0.23472817 -0.13754267,0.13754267 0.23472817 -0.96228099,
  0.91202219 0.26210054 -0.31546606,0.7720318 0.28620087 -0.56749975,
  0.56749975 0.28620087 -0.7720318,0.31546606 0.26210054 -0.91202219,
  0.96488892 0.2314775 -0.12412709,0.12412709 0.2314775 -0.96488892,
  0.94619163 0.24602114 -0.21022604,0.84314622 0.27710851 -0.46077688,
  0.67719899 0.2877552 -0.67719899,0.46077688 0.27710851 -0.84314622,
  0.21022604 0.24602114 -0.94619163] }
}
}
DEF SHAPE_21 Shape {
 appearance USE APP_1
 geometry DEF FACE_21 IndexedFaceSet {
  coord DEF COORD_21 Coordinate { point [
  0.83511256 0.14598078 0.91471305,0.83511256 0.14598078 -0.91471305,
  0.86613253 4.3288366e-05 -0.94573302,0.86614173 0 -0.94488189,
  0.86614173 0 0.94488189,0.86613253 4.3288366e-05 0.94573302] }
 coordIndex [
  0,5,4,-1,1,3,2,-1,1,4,3,-1,1,0,4,-1]
  normalPerVertex TRUE
  normal DEF NORM_21 Normal { vector [
  0.9781476 0.20791169 0,0.9781476 0.20791169 0,
  0.9781476 0.20791169 0,0.9781476 0.20791169 0,
  0.9781476 0.20791169 0,0.9781476 0.20791169 0] }
}
}
DEF SHAPE_22 Shape {
 appearance USE APP_1
 geometry DEF FACE_22 IndexedFaceSet {
  coord DEF COORD_22 Coordinate { point [
  0.79660281 0.17716535 -0.91471305,0.83511256 0.14598078 -0.91471305,
  0.80719021 0.17571506 -0.91471305,0.81699758 0.17147103 -0.91471305,
  0.82530236 0.16474595 -0.91471305,0.83149272 0.15603528 -0.91471305,
  0.79660281 0.17716535 0.91471305,0.83511256 0.14598078 0.91471305,
  0.83149272 0.15603528 0.91471305,0.82530236 0.16474595 0.91471305,
  0.81699758 0.17147103 0.91471305,0.80719021 0.17571506 0.91471305] }
 coordIndex [
  2,0,6,-1,2,6,11,-1,3,11,10,-1,3,2,11,-1,4,10,9,-1,4,3,10,-1,5,9,8,-1,5,4,9,-1,
  1,8,7,-1,1,5,8,-1]
  normalPerVertex TRUE
  normal DEF NORM_22 Normal { vector [
  0.13571557 0.99074784 0,0.94088077 0.33873792 0,
  0.22470674 0.97442644 0,0.4784717 0.87810297 0,
  0.69698533 0.71708539 0,0.86414865 0.50323663 0,
  0.13571557 0.99074784 0,0.94088077 0.33873792 0,
  0.90641372 0.42239101 0,0.75943445 0.65058382 0,
  0.55650395 0.83084496 0,0.3125731 0.94989371 0] }
}
}
DEF SHAPE_23 Shape {
 appearance USE APP_1
 geometry DEF FACE_23 IndexedFaceSet {
  coord DEF COORD_23 Coordinate { point [
  0.79660281 0.14598078 0.9532228,0.83511256 0.14598078 0.91471305,
  0.80819664 0.14795955 0.95093837,0.81871672 0.14899698 0.945299,
  0.82718876 0.14899698 0.93682696,0.83282813 0.14795955 0.92630687,
  0.79660281 0.17716535 0.91471305,0.83149272 0.15603528 0.91471305,
  0.82530236 0.16474595 0.91471305,0.81699758 0.17147103 0.91471305,
  0.80719021 0.17571506 0.91471305,0.79660281 0.17571506 0.92530044,
  0.79660281 0.17147103 0.93510781,0.79660281 0.16474595 0.9434126,
  0.79660281 0.15603528 0.94960295,0.80938449 0.17446218 0.9212069,
  0.80656824 0.1709844 0.93339928,0.81986199 0.16651797 0.92827847,
  0.80128065 0.16445478 0.94330312,0.829811 0.15792112 0.9212069,
  0.81549616 0.16112662 0.9401825,0.82699475 0.15444334 0.93339928,
  0.80881642 0.15287782 0.94896721] }
 coordIndex [
  11,10,6,-1,5,1,7,-1,15,9,10,-1,15,10,11,-1,16,11,12,-1,16,15,11,-1,17,8,9,-1,17,15,16,-1,
  17,9,15,-1,18,12,13,-1,18,13,14,-1,18,16,12,-1,19,7,8,-1,19,5,7,-1,19,8,17,-1,20,17,16,-1,
  20,16,18,-1,21,3,4,-1,21,4,5,-1,21,20,3,-1,21,19,17,-1,21,5,19,-1,21,17,20,-1,22,0,2,-1,
  22,2,3,-1,22,14,0,-1,22,3,20,-1,22,20,18,-1,22,18,14,-1]
  normalPerVertex TRUE
  normal DEF NORM_23 Normal { vector [
  0.13106714 0.3420344 0.93050195,0.93331633 0.33601455 0.12654982,
  0.27899264 0.32674688 0.90299479,0.55866647 0.42249164 0.71371744,
  0.75593331 0.3677717 0.54157991,0.90023846 0.36130646 0.24295751,
  0.13448272 0.98174783 0.13448272,0.90782377 0.40480583 0.10949083,
  0.70257154 0.69549873 0.15058137,0.53422758 0.83182098 0.15058137,
  0.20398304 0.97222993 0.11471657,0.15022753 0.95530832 0.2545932,
  0.11598191 0.84228733 0.52640312,0.059565351 0.68333163 0.72767428,
  0.14291732 0.45892289 0.87690616,0.34312154 0.90745686 0.24246577,
  0.29660802 0.83123573 0.47018172,0.59233886 0.73147757 0.33775027,
  0.22139854 0.65482393 0.72262598,0.80324215 0.54465001 0.24116057,
  0.47507939 0.60075981 0.64295197,0.72220272 0.49498286 0.48313062,
  0.27746779 0.45912713 0.84392766] }
}
}
DEF SHAPE_24 Shape {
 appearance USE APP_1
 geometry DEF FACE_24 IndexedFaceSet {
  coord DEF COORD_24 Coordinate { point [
  0.79660281 0.17716535 0.91471305,0.79660281 0.14598078 0.9532228,
  0.79660281 0.17571506 0.92530044,0.79660281 0.17147103 0.93510781,
  0.79660281 0.16474595 0.9434126,0.79660281 0.15603528 0.94960295,
  -0.79660281 0.17716535 0.91471305,-0.79660281 0.14598078 0.9532228,
  -0.79660281 0.15603528 0.94960295,-0.79660281 0.16474595 0.9434126,
  -0.79660281 0.17147103 0.93510781,-0.79660281 0.17571506 0.92530044] }
 coordIndex [
  2,0,6,-1,2,6,11,-1,3,11,10,-1,3,2,11,-1,4,10,9,-1,4,3,10,-1,5,9,8,-1,5,4,9,-1,
  1,8,7,-1,1,5,8,-1]
  normalPerVertex TRUE
  normal DEF NORM_24 Normal { vector [
  0 0.99074784 0.13571557,0 0.33873792 0.94088077,
  0 0.97442644 0.22470674,0 0.87810297 0.4784717,
  0 0.71708539 0.69698533,0 0.50323663 0.86414865,
  0 0.99074784 0.13571557,0 0.33873792 0.94088077,
  0 0.42239101 0.90641372,0 0.65058382 0.75943445,
  0 0.83084496 0.55650395,0 0.94989371 0.3125731] }
}
}
DEF SHAPE_25 Shape {
 appearance USE APP_1
 geometry DEF FACE_25 IndexedFaceSet {
  coord DEF COORD_25 Coordinate { point [
  0.82677165 0 0.98425197,0.82762278 4.3288366e-05 0.98424277,
  -0.82677165 0 0.98425197,-0.82762278 4.3288366e-05 0.98424277,
  -0.79660281 0.14598078 0.9532228,0.79660281 0.14598078 0.9532228] }
 coordIndex [
  4,3,2,-1,5,0,1,-1,5,2,0,-1,5,4,2,-1]
  normalPerVertex TRUE
  normal DEF NORM_25 Normal { vector [
  0 0.20791169 0.9781476,0 0.20791169 0.9781476,
  0 0.20791169 0.9781476,0 0.20791169 0.9781476,
  0 0.20791169 0.9781476,0 0.20791169 0.9781476] }
}
}
DEF SHAPE_26 Shape {
 appearance USE APP_1
 geometry DEF FACE_26 IndexedFaceSet {
  coord DEF COORD_26 Coordinate { point [
  -0.83511256 0.14598078 0.91471305,-0.79660281 0.14598078 0.9532228,
  -0.83282813 0.14795955 0.92630687,-0.82718876 0.14899698 0.93682696,
  -0.81871672 0.14899698 0.945299,-0.80819664 0.14795955 0.95093837,
  -0.86613253 4.3288366e-05 0.94573302,-0.82762278 4.3288366e-05 0.98424277,
  -0.86465312 0.00091601001 0.95560559,-0.86072278 0.0014649161 0.96481487,
  -0.8546105 0.0016514133 0.97272074,-0.84670464 0.0014649161 0.97883302,
  -0.83749535 0.00091601001 0.98276335] }
 coordIndex [
  12,1,5,-1,12,7,1,-1,11,5,4,-1,11,12,5,-1,10,4,3,-1,10,11,4,-1,9,3,2,-1,9,10,3,-1,
  8,2,0,-1,8,9,2,-1,6,8,0,-1]
  normalPerVertex TRUE
  normal DEF NORM_26 Normal { vector [
  -0.96228099 0.23472817 0.13754267,-0.13754267 0.23472817 0.96228099,
  -0.91202219 0.26210054 0.31546606,-0.7720318 0.28620087 0.56749975,
  -0.56749975 0.28620087 0.7720318,-0.31546606 0.26210054 0.91202219,
  -0.96488892 0.2314775 0.12412709,-0.12412709 0.2314775 0.96488892,
  -0.94619163 0.24602114 0.21022604,-0.84314622 0.27710851 0.46077688,
  -0.67719899 0.2877552 0.67719899,-0.46077688 0.27710851 0.84314622,
  -0.21022604 0.24602114 0.94619163] }
}
}
DEF SHAPE_27 Shape {
 appearance USE APP_1
 geometry DEF FACE_27 IndexedFaceSet {
  coord DEF COORD_27 Coordinate { point [
  -0.83511256 0.14598078 -0.91471305,-0.83511256 0.14598078 0.91471305,
  -0.86613253 4.3288366e-05 0.94573302,-0.86614173 0 0.94488189,
  -0.86614173 0 -0.94488189,-0.86613253 4.3288366e-05 -0.94573302] }
 coordIndex [
  0,5,4,-1,1,3,2,-1,1,4,3,-1,1,0,4,-1]
  normalPerVertex TRUE
  normal DEF NORM_27 Normal { vector [
  -0.9781476 0.20791169 0,-0.9781476 0.20791169 0,
  -0.9781476 0.20791169 0,-0.9781476 0.20791169 0,
  -0.9781476 0.20791169 0,-0.9781476 0.20791169 0] }
}
}
DEF SHAPE_28 Shape {
 appearance USE APP_1
 geometry DEF FACE_28 IndexedFaceSet {
  coord DEF COORD_28 Coordinate { point [
  -0.79660281 0.17716535 0.91471305,-0.83511256 0.14598078 0.91471305,
  -0.80719021 0.17571506 0.91471305,-0.81699758 0.17147103 0.91471305,
  -0.82530236 0.16474595 0.91471305,-0.83149272 0.15603528 0.91471305,
  -0.79660281 0.17716535 -0.91471305,-0.83511256 0.14598078 -0.91471305,
  -0.83149272 0.15603528 -0.91471305,-0.82530236 0.16474595 -0.91471305,
  -0.81699758 0.17147103 -0.91471305,-0.80719021 0.17571506 -0.91471305] }
 coordIndex [
  2,0,6,-1,2,6,11,-1,3,11,10,-1,3,2,11,-1,4,10,9,-1,4,3,10,-1,5,9,8,-1,5,4,9,-1,
  1,8,7,-1,1,5,8,-1]
  normalPerVertex TRUE
  normal DEF NORM_28 Normal { vector [
  -0.13571557 0.99074784 0,-0.94088077 0.33873792 0,
  -0.22470674 0.97442644 0,-0.4784717 0.87810297 0,
  -0.69698533 0.71708539 0,-0.86414865 0.50323663 0,
  -0.13571557 0.99074784 0,-0.94088077 0.33873792 0,
  -0.90641372 0.42239101 0,-0.75943445 0.65058382 0,
  -0.55650395 0.83084496 0,-0.3125731 0.94989371 0] }
}
}
DEF SHAPE_29 Shape {
 appearance USE APP_1
 geometry DEF FACE_29 IndexedFaceSet {
  coord DEF COORD_29 Coordinate { point [
  -0.83511256 0.14598078 -0.91471305,-0.79660281 0.17716535 -0.91471305,
  -0.83149272 0.15603528 -0.91471305,-0.82530236 0.16474595 -0.91471305,
  -0.81699758 0.17147103 -0.91471305,-0.80719021 0.17571506 -0.91471305,
  -0.79660281 0.14598078 -0.9532228,-0.79660281 0.17571506 -0.92530044,
  -0.79660281 0.17147103 -0.93510781,-0.79660281 0.16474595 -0.9434126,
  -0.79660281 0.15603528 -0.94960295,-0.80819664 0.14795955 -0.95093837,
  -0.81871672 0.14899698 -0.945299,-0.82718876 0.14899698 -0.93682696,
  -0.83282813 0.14795955 -0.92630687,-0.83137934 0.15321198 -0.92485808,
  -0.82681523 0.16241369 -0.92029397,-0.82336428 0.16014082 -0.93300248,
  -0.81712005 0.1547855 -0.94370233,-0.81725711 0.1690202 -0.9268953,
  -0.8120901 0.1649264 -0.93867238,-0.80948612 0.17473528 -0.91912432,
  -0.80472636 0.15807133 -0.94746809,-0.80506141 0.17231786 -0.93164369,
  -0.79918479 0.16612836 -0.94192652] }
 coordIndex [
  10,6,11,-1,15,0,2,-1,15,13,14,-1,15,14,0,-1,16,2,3,-1,16,3,4,-1,16,15,2,-1,17,15,16,-1,
  17,13,15,-1,18,11,12,-1,18,12,13,-1,18,13,17,-1,19,17,16,-1,19,16,4,-1,20,18,17,-1,20,17,19,-1,
  21,4,5,-1,21,5,1,-1,21,1,7,-1,21,19,4,-1,22,9,10,-1,22,18,20,-1,22,11,18,-1,22,10,11,-1,
  23,7,8,-1,23,20,19,-1,23,21,7,-1,23,19,21,-1,24,8,9,-1,24,23,8,-1,24,9,22,-1,24,22,20,-1,
  24,20,23,-1]
  normalPerVertex TRUE
  normal DEF NORM_29 Normal { vector [
  -0.93955054 0.32210992 -0.11614641,-0.137816 0.98082287 -0.137816,
  -0.88583792 0.4526961 -0.10177145,-0.72613285 0.68188414 -0.088119845,
  -0.55590906 0.82068939 -0.13203801,-0.26818727 0.96053885 -0.073761192,
  -0.12654982 0.33601455 -0.93331633,-0.14364301 0.95896501 -0.24444386,
  -0.088564372 0.85845865 -0.50517828,-0.058712673 0.62767821 -0.77625569,
  -0.11837324 0.41670486 -0.90130174,-0.25842474 0.37189871 -0.89157613,
  -0.54387759 0.35921056 -0.7583963,-0.74252995 0.40855589 -0.53078372,
  -0.90317434 0.32612231 -0.27914216,-0.86079845 0.42910724 -0.27366586,
  -0.73002863 0.65140424 -0.20671409,-0.67828945 0.56778274 -0.46641847,
  -0.50854095 0.47463516 -0.71840627,-0.52136022 0.79221243 -0.31714821,
  -0.3952182 0.68938037 -0.60708919,-0.28110623 0.93921319 -0.197124,
  -0.25677243 0.53183473 -0.80698187,-0.25460177 0.86878359 -0.42472699,
  -0.18974334 0.73547268 -0.650444] }
}
}
DEF SHAPE_30 Shape {
 appearance USE APP_1
 geometry DEF FACE_30 IndexedFaceSet {
  coord DEF COORD_30 Coordinate { point [
  -0.79660281 0.14598078 -0.9532228,-0.83511256 0.14598078 -0.91471305,
  -0.80819664 0.14795955 -0.95093837,-0.81871672 0.14899698 -0.945299,
  -0.82718876 0.14899698 -0.93682696,-0.83282813 0.14795955 -0.92630687,
  -0.82762278 4.3288366e-05 -0.98424277,-0.86613253 4.3288366e-05 -0.94573302,
  -0.83749535 0.00091601001 -0.98276335,-0.84670464 0.0014649161 -0.97883302,
  -0.8546105 0.0016514133 -0.97272074,-0.86072278 0.0014649161 -0.96481487,
  -0.86465312 0.00091601001 -0.95560559] }
 coordIndex [
  12,1,5,-1,12,7,1,-1,11,5,4,-1,11,12,5,-1,10,4,3,-1,10,11,4,-1,9,3,2,-1,9,10,3,-1,
  8,2,0,-1,8,9,2,-1,6,8,0,-1]
  normalPerVertex TRUE
  normal DEF NORM_30 Normal { vector [
  -0.13754267 0.23472817 -0.96228099,-0.96228099 0.23472817 -0.13754267,
  -0.31546606 0.26210054 -0.91202219,-0.56749975 0.28620087 -0.7720318,
  -0.7720318 0.28620087 -0.56749975,-0.91202219 0.26210054 -0.31546606,
  -0.12412709 0.2314775 -0.96488892,-0.96488892 0.2314775 -0.12412709,
  -0.21022604 0.24602114 -0.94619163,-0.46077688 0.27710851 -0.84314622,
  -0.67719899 0.2877552 -0.67719899,-0.84314622 0.27710851 -0.46077688,
  -0.94619163 0.24602114 -0.21022604] }
}
}
DEF SHAPE_31 Shape {
 appearance USE APP_1
 geometry DEF FACE_31 IndexedFaceSet {
  coord DEF COORD_31 Coordinate { point [
  -0.86613253 4.3288366e-05 -0.94573302,-0.86614173 0 -0.94488189,
  -0.82762278 4.3288366e-05 -0.98424277,-0.83749535 0.00091601001 -0.98276335,
  -0.84670464 0.0014649161 -0.97883302,-0.8546105 0.0016514133 -0.97272074,
  -0.86072278 0.0014649161 -0.96481487,-0.86465312 0.00091601001 -0.95560559,
  -0.82677165 0 -0.98425197,-0.82677165 -0.059055118 -0.98425197,
  -0.82762278 -0.059098406 -0.98424277,-0.86613253 -0.059098406 -0.94573302,
  -0.86465312 -0.059971128 -0.95560559,-0.86072278 -0.060520034 -0.96481487,
  -0.8546105 -0.060706531 -0.97272074,-0.84670464 -0.060520034 -0.97883302,
  -0.83749535 -0.059971128 -0.98276335,-0.86614173 -0.059055118 -0.94488189] }
 coordIndex [
  11,1,0,-1,11,17,1,-1,12,0,7,-1,12,11,0,-1,13,7,6,-1,13,12,7,-1,14,6,5,-1,14,13,6,-1,
  15,5,4,-1,15,14,5,-1,16,4,3,-1,16,15,4,-1,10,3,2,-1,10,16,3,-1,9,2,8,-1,9,10,2,-1]
  normalPerVertex TRUE
  normal DEF NORM_31 Normal { vector [
  -0.98976463 0 -0.14270941,-0.99994157 0 -0.010809976,
  -0.12834523 0 -0.99172955,-0.23226975 0 -0.97265141,
  -0.46929034 0 -0.88304393,-0.67645975 0 -0.7364796,
  -0.84001578 0 -0.54256197,-0.94942913 0 -0.31398141,
  -0.010809976 0 -0.99994157,-0.010809976 0 -0.99994157,
  -0.14270941 0 -0.98976463,-0.99172955 0 -0.12834523,
  -0.97265141 0 -0.23226975,-0.88304393 0 -0.46929034,
  -0.7364796 0 -0.67645975,-0.54256197 0 -0.84001578,
  -0.31398141 0 -0.94942913,-0.99994157 0 -0.010809976] }
}
}
DEF SHAPE_32 Shape {
 appearance USE APP_1
 geometry DEF FACE_32 IndexedFaceSet {
  coord DEF COORD_32 Coordinate { point [
  -0.86614173 0 -0.94488189,-0.86614173 -0.059055118 -0.94488189,
  -0.86614173 0 0.94488189,-0.86614173 -0.059055118 0.94488189] }
 coordIndex [
  2,0,1,-1,2,1,3,-1]
  normalPerVertex TRUE
  normal DEF NORM_32 Normal { vector [
  -1 0 0,-1 0 0,
  -1 0 0,-1 0 0] }
}
}
DEF SHAPE_33 Shape {
 appearance USE APP_1
 geometry DEF FACE_33 IndexedFaceSet {
  coord DEF COORD_33 Coordinate { point [
  0.79660281 0.14598078 -0.9532228,0.79660281 0.17716535 -0.91471305,
  0.79660281 0.15603528 -0.94960295,0.79660281 0.16474595 -0.9434126,
  0.79660281 0.17147103 -0.93510781,0.79660281 0.17571506 -0.92530044,
  -0.79660281 0.14598078 -0.9532228,-0.79660281 0.17716535 -0.91471305,
  -0.79660281 0.17571506 -0.92530044,-0.79660281 0.17147103 -0.93510781,
  -0.79660281 0.16474595 -0.9434126,-0.79660281 0.15603528 -0.94960295] }
 coordIndex [
  8,1,5,-1,8,7,1,-1,9,5,4,-1,9,8,5,-1,10,4,3,-1,10,9,4,-1,11,3,2,-1,11,10,3,-1,
  6,2,0,-1,6,11,2,-1]
  normalPerVertex TRUE
  normal DEF NORM_33 Normal { vector [
  0 0.33873792 -0.94088077,0 0.99074784 -0.13571557,
  0 0.42239101 -0.90641372,0 0.65058382 -0.75943445,
  0 0.83084496 -0.55650395,0 0.94989371 -0.3125731,
  0 0.33873792 -0.94088077,0 0.99074784 -0.13571557,
  0 0.97442644 -0.22470674,0 0.87810297 -0.4784717,
  0 0.71708539 -0.69698533,0 0.50323663 -0.86414865] }
}
}
DEF SHAPE_34 Shape {
 appearance USE APP_1
 geometry DEF FACE_34 IndexedFaceSet {
  coord DEF COORD_34 Coordinate { point [
  -0.79660281 0.17716535 -0.91471305,-0.79660281 0.17716535 0.91471305,
  0.79660281 0.17716535 -0.91471305,0.79660281 0.17716535 0.91471305,
  -0.39370079 0.17716535 -0.66929134,-0.70866142 0.17716535 -0.66929134,
  -0.40007985 0.17716535 -0.62492401,-0.41870023 0.17716535 -0.58415105,
  -0.44805343 0.17716535 -0.55027566,-0.48576142 0.17716535 -0.52604221,
  -0.52876932 0.17716535 -0.51341395,-0.57359289 0.17716535 -0.51341395,
  -0.61660079 0.17716535 -0.52604221,-0.65430878 0.17716535 -0.55027566,
  -0.68366197 0.17716535 -0.58415105,-0.70228236 0.17716535 -0.62492401,
  -0.70228236 0.17716535 -0.71365867,-0.68366197 0.17716535 -0.75443162,
  -0.65430878 0.17716535 -0.78830702,-0.61660079 0.17716535 -0.81254047,
  -0.57359289 0.17716535 -0.82516873,-0.52876932 0.17716535 -0.82516873,
  -0.48576142 0.17716535 -0.81254047,-0.44805343 0.17716535 -0.78830702,
  -0.41870023 0.17716535 -0.75443162,-0.40007985 0.17716535 -0.71365867] }
 coordIndex [
  21,0,20,-1,14,1,13,-1,12,13,1,-1,15,1,14,-1,11,12,1,-1,10,11,1,-1,9,1,3,-1,9,10,1,-1,
  8,9,3,-1,0,15,5,-1,0,5,16,-1,0,16,17,-1,2,4,6,-1,2,6,7,-1,2,22,23,-1,0,1,15,-1,
  2,23,24,-1,2,24,25,-1,2,25,4,-1,2,7,3,-1,2,0,21,-1,2,21,22,-1,18,0,17,-1,7,8,3,-1,
  19,0,18,-1,20,0,19,-1]
  normalPerVertex TRUE
  normal DEF NORM_34 Normal { vector [
  0 1 0,0 1 0,
  0 1 0,0 1 0,
  0 1 0,0 1 0,
  0 1 0,0 1 0,
  0 1 0,0 1 0,
  0 1 0,0 1 0,
  0 1 0,0 1 0,
  0 1 0,0 1 0,
  0 1 0,0 1 0,
  0 1 0,0 1 0,
  0 1 0,0 1 0,
  0 1 0,0 1 0,
  0 1 0,0 1 0] }
}
}
DEF SHAPE_35 Shape {
 appearance USE APP_1
 geometry DEF FACE_35 IndexedFaceSet {
  coord DEF COORD_35 Coordinate { point [
  -0.39370079 0.17716535 -0.66929134,-0.70866142 0.17716535 -0.66929134,
  -0.40007985 0.17716535 -0.62492401,-0.41870023 0.17716535 -0.58415105,
  -0.44805343 0.17716535 -0.55027566,-0.48576142 0.17716535 -0.52604221,
  -0.52876932 0.17716535 -0.51341395,-0.57359289 0.17716535 -0.51341395,
  -0.61660079 0.17716535 -0.52604221,-0.65430878 0.17716535 -0.55027566,
  -0.68366197 0.17716535 -0.58415105,-0.70228236 0.17716535 -0.62492401,
  -0.70866142 0.15748031 -0.66929134,-0.39370079 0.15748031 -0.66929134,
  -0.40007985 0.15748031 -0.62492401,-0.41870023 0.15748031 -0.58415105,
  -0.44805343 0.15748031 -0.55027566,-0.48576142 0.15748031 -0.52604221,
  -0.52876932 0.15748031 -0.51341395,-0.57359289 0.15748031 -0.51341395,
  -0.61660079 0.15748031 -0.52604221,-0.65430878 0.15748031 -0.55027566,
  -0.68366197 0.15748031 -0.58415105,-0.70228236 0.15748031 -0.62492401] }
 coordIndex [
  14,2,0,-1,14,0,13,-1,15,3,2,-1,15,2,14,-1,16,4,3,-1,16,3,15,-1,17,5,4,-1,17,4,16,-1,
  18,6,5,-1,18,5,17,-1,19,7,6,-1,19,6,18,-1,20,8,7,-1,20,7,19,-1,21,9,8,-1,21,8,20,-1,
  22,10,9,-1,22,9,21,-1,23,11,10,-1,23,10,22,-1,12,1,11,-1,12,11,23,-1]
  normalPerVertex TRUE
  normal DEF NORM_35 Normal { vector [
  -0.98982144 0 -0.14231484,0.98982144 0 -0.14231484,
  -0.94490607 0 -0.32734159,-0.81440795 0 -0.58029276,
  -0.61793135 0 -0.78623206,-0.37139362 0 -0.92847551,
  -0.094767785 0 -0.99549941,0.18953557 0 -0.98187386,
  0.45848388 0 -0.88870272,0.69028855 0 -0.72353418,
  0.86617015 0 -0.49974921,0.9718798 0 -0.23547752,
  0.98982144 0 -0.14231484,-0.98982144 0 -0.14231484,
  -0.9718798 0 -0.23547752,-0.86617015 0 -0.49974921,
  -0.69028855 0 -0.72353418,-0.45848388 0 -0.88870272,
  -0.18953557 0 -0.98187386,0.094767785 0 -0.99549941,
  0.37139362 0 -0.92847551,0.61793135 0 -0.78623206,
  0.81440795 0 -0.58029276,0.94490607 0 -0.32734159] }
}
}
DEF SHAPE_36 Shape {
 appearance USE APP_1
 geometry DEF FACE_36 IndexedFaceSet {
  coord DEF COORD_36 Coordinate { point [
  -0.70866142 0.17716535 -0.66929134,-0.39370079 0.17716535 -0.66929134,
  -0.70228236 0.17716535 -0.71365867,-0.68366197 0.17716535 -0.75443162,
  -0.65430878 0.17716535 -0.78830702,-0.61660079 0.17716535 -0.81254047,
  -0.57359289 0.17716535 -0.82516873,-0.52876932 0.17716535 -0.82516873,
  -0.48576142 0.17716535 -0.81254047,-0.44805343 0.17716535 -0.78830702,
  -0.41870023 0.17716535 -0.75443162,-0.40007985 0.17716535 -0.71365867,
  -0.39370079 0.15748031 -0.66929134,-0.70866142 0.15748031 -0.66929134,
  -0.70228236 0.15748031 -0.71365867,-0.68366197 0.15748031 -0.75443162,
  -0.65430878 0.15748031 -0.78830702,-0.61660079 0.15748031 -0.81254047,
  -0.57359289 0.15748031 -0.82516873,-0.52876932 0.15748031 -0.82516873,
  -0.48576142 0.15748031 -0.81254047,-0.44805343 0.15748031 -0.78830702,
  -0.41870023 0.15748031 -0.75443162,-0.40007985 0.15748031 -0.71365867] }
 coordIndex [
  14,2,0,-1,14,0,13,-1,15,3,2,-1,15,2,14,-1,16,4,3,-1,16,3,15,-1,17,5,4,-1,17,4,16,-1,
  18,6,5,-1,18,5,17,-1,19,7,6,-1,19,6,18,-1,20,8,7,-1,20,7,19,-1,21,9,8,-1,21,8,20,-1,
  22,10,9,-1,22,9,21,-1,23,11,10,-1,23,10,22,-1,12,1,11,-1,12,11,23,-1]
  normalPerVertex TRUE
  normal DEF NORM_36 Normal { vector [
  0.98982144 0 0.14231484,-0.98982144 0 0.14231484,
  0.94490607 0 0.32734159,0.81440795 0 0.58029276,
  0.61793135 0 0.78623206,0.37139362 0 0.92847551,
  0.094767785 0 0.99549941,-0.18953557 0 0.98187386,
  -0.45848388 0 0.88870272,-0.69028855 0 0.72353418,
  -0.86617015 0 0.49974921,-0.9718798 0 0.23547752,
  -0.98982144 0 0.14231484,0.98982144 0 0.14231484,
  0.9718798 0 0.23547752,0.86617015 0 0.49974921,
  0.69028855 0 0.72353418,0.45848388 0 0.88870272,
  0.18953557 0 0.98187386,-0.094767785 0 0.99549941,
  -0.37139362 0 0.92847551,-0.61793135 0 0.78623206,
  -0.81440795 0 0.58029276,-0.94490607 0 0.32734159] }
}
}
DEF SHAPE_37 Shape {
 appearance USE APP_1
 geometry DEF FACE_37 IndexedFaceSet {
  coord DEF COORD_37 Coordinate { point [
  -0.39370079 0.15748031 -0.66929134,-0.70866142 0.15748031 -0.66929134,
  -0.40007985 0.15748031 -0.62492401,-0.41870023 0.15748031 -0.58415105,
  -0.44805343 0.15748031 -0.55027566,-0.48576142 0.15748031 -0.52604221,
  -0.52876932 0.15748031 -0.51341395,-0.57359289 0.15748031 -0.51341395,
  -0.61660079 0.15748031 -0.52604221,-0.65430878 0.15748031 -0.55027566,
  -0.68366197 0.15748031 -0.58415105,-0.70228236 0.15748031 -0.62492401,
  -0.70228236 0.15748031 -0.71365867,-0.68366197 0.15748031 -0.75443162,
  -0.65430878 0.15748031 -0.78830702,-0.61660079 0.15748031 -0.81254047,
  -0.57359289 0.15748031 -0.82516873,-0.52876932 0.15748031 -0.82516873,
  -0.48576142 0.15748031 -0.81254047,-0.44805343 0.15748031 -0.78830702,
  -0.41870023 0.15748031 -0.75443162,-0.40007985 0.15748031 -0.71365867] }
 coordIndex [
  4,2,0,-1,4,3,2,-1,4,6,5,-1,4,7,6,-1,4,8,7,-1,4,9,8,-1,4,10,9,-1,4,11,10,-1,
  4,1,11,-1,4,12,1,-1,4,13,12,-1,4,14,13,-1,4,15,14,-1,4,16,15,-1,4,17,16,-1,4,18,17,-1,
  4,19,18,-1,4,20,19,-1,4,21,20,-1,4,0,21,-1]
  normalPerVertex TRUE
  normal DEF NORM_37 Normal { vector [
  0 1 0,0 1 0,
  0 1 0,0 1 0,
  0 1 0,0 1 0,
  0 1 0,0 1 0,
  0 1 0,0 1 0,
  0 1 0,0 1 0,
  0 1 0,0 1 0,
  0 1 0,0 1 0,
  0 1 0,0 1 0,
  0 1 0,0 1 0,
  0 1 0,0 1 0] }
}
}
DEF SHAPE_38 Shape {
 appearance USE APP_1
 geometry DEF FACE_38 IndexedFaceSet {
  coord DEF COORD_38 Coordinate { point [
  0.79660281 0.17716535 -0.91471305,0.83511256 0.14598078 -0.91471305,
  0.80719021 0.17571506 -0.91471305,0.81699758 0.17147103 -0.91471305,
  0.82530236 0.16474595 -0.91471305,0.83149272 0.15603528 -0.91471305,
  0.79660281 0.14598078 -0.9532228,0.83282813 0.14795955 -0.92630687,
  0.82718876 0.14899698 -0.93682696,0.81871672 0.14899698 -0.945299,
  0.80819664 0.14795955 -0.95093837,0.79660281 0.15603528 -0.94960295,
  0.79660281 0.16474595 -0.9434126,0.79660281 0.17147103 -0.93510781,
  0.79660281 0.17571506 -0.92530044,0.80309666 0.17446218 -0.92749472,
  0.81528905 0.1709844 -0.92467847,0.81016823 0.16651797 -0.93797223,
  0.82519288 0.16445478 -0.91939089,0.80309666 0.15792112 -0.94792123,
  0.82207226 0.16112662 -0.9336064,0.81528905 0.15444334 -0.94510498,
  0.83085698 0.15287782 -0.92692665] }
 coordIndex [
  2,14,0,-1,10,6,11,-1,15,13,14,-1,15,14,2,-1,16,2,3,-1,16,15,2,-1,17,12,13,-1,17,15,16,-1,
  17,13,15,-1,18,3,4,-1,18,4,5,-1,18,16,3,-1,19,11,12,-1,19,10,11,-1,19,12,17,-1,20,17,16,-1,
  20,16,18,-1,21,8,9,-1,21,9,10,-1,21,10,19,-1,21,20,8,-1,21,19,17,-1,21,17,20,-1,22,5,1,-1,
  22,1,7,-1,22,7,8,-1,22,8,20,-1,22,18,5,-1,22,20,18,-1]
  normalPerVertex TRUE
  normal DEF NORM_38 Normal { vector [
  0.13448272 0.98174783 -0.13448272,0.93050195 0.3420344 -0.13106714,
  0.2545932 0.95530832 -0.15022753,0.52640312 0.84228733 -0.11598191,
  0.72767428 0.68333163 -0.059565351,0.87690616 0.45892289 -0.14291732,
  0.12654982 0.33601455 -0.93331633,0.90299479 0.32674688 -0.27899264,
  0.71371744 0.42249164 -0.55866647,0.54157991 0.3677717 -0.75593331,
  0.24295751 0.36130646 -0.90023846,0.10949083 0.40480583 -0.90782377,
  0.15058137 0.69549873 -0.70257154,0.15058137 0.83182098 -0.53422758,
  0.11471657 0.97222993 -0.20398304,0.24246577 0.90745686 -0.34312154,
  0.47018172 0.83123573 -0.29660802,0.33775027 0.73147757 -0.59233886,
  0.72262598 0.65482393 -0.22139854,0.24116057 0.54465001 -0.80324215,
  0.64295197 0.60075981 -0.47507939,0.48313062 0.49498286 -0.72220272,
  0.84392766 0.45912713 -0.27746779] }
}
}
DEF SHAPE_39 Shape {
 appearance USE APP_1
 geometry DEF FACE_39 IndexedFaceSet {
  coord DEF COORD_39 Coordinate { point [
  -0.79660281 0.14598078 0.9532228,-0.79660281 0.17716535 0.91471305,
  -0.79660281 0.15603528 0.94960295,-0.79660281 0.16474595 0.9434126,
  -0.79660281 0.17147103 0.93510781,-0.79660281 0.17571506 0.92530044,
  -0.83511256 0.14598078 0.91471305,-0.80719021 0.17571506 0.91471305,
  -0.81699758 0.17147103 0.91471305,-0.82530236 0.16474595 0.91471305,
  -0.83149272 0.15603528 0.91471305,-0.83282813 0.14795955 0.92630687,
  -0.82718876 0.14899698 0.93682696,-0.81871672 0.14899698 0.945299,
  -0.80819664 0.14795955 0.95093837,-0.80309666 0.17446218 0.92749472,
  -0.81528905 0.1709844 0.92467847,-0.81016823 0.16651797 0.93797223,
  -0.82519288 0.16445478 0.91939089,-0.80309666 0.15792112 0.94792123,
  -0.82207226 0.16112662 0.9336064,-0.81528905 0.15444334 0.94510498,
  -0.83085698 0.15287782 0.92692665] }
 coordIndex [
  7,5,1,-1,14,0,2,-1,15,4,5,-1,15,5,7,-1,16,7,8,-1,16,15,7,-1,17,3,4,-1,17,15,16,-1,
  17,4,15,-1,18,8,9,-1,18,9,10,-1,18,16,8,-1,19,2,3,-1,19,3,17,-1,19,14,2,-1,20,17,16,-1,
  20,16,18,-1,21,12,13,-1,21,13,14,-1,21,20,12,-1,21,17,20,-1,21,19,17,-1,21,14,19,-1,22,10,6,-1,
  22,6,11,-1,22,11,12,-1,22,12,20,-1,22,18,10,-1,22,20,18,-1]
  normalPerVertex TRUE
  normal DEF NORM_39 Normal { vector [
  -0.12654982 0.33601455 0.93331633,-0.13448272 0.98174783 0.13448272,
  -0.10949083 0.40480583 0.90782377,-0.15058137 0.69549873 0.70257154,
  -0.15058137 0.83182098 0.53422758,-0.11471657 0.97222993 0.20398304,
  -0.93050195 0.3420344 0.13106714,-0.2545932 0.95530832 0.15022753,
  -0.52640312 0.84228733 0.11598191,-0.72767428 0.68333163 0.059565351,
  -0.87690616 0.45892289 0.14291732,-0.90299479 0.32674688 0.27899264,
  -0.71371744 0.42249164 0.55866647,-0.54157991 0.3677717 0.75593331,
  -0.24295751 0.36130646 0.90023846,-0.24246577 0.90745686 0.34312154,
  -0.47018172 0.83123573 0.29660802,-0.33775027 0.73147757 0.59233886,
  -0.72262598 0.65482393 0.22139854,-0.24116057 0.54465001 0.80324215,
  -0.64295197 0.60075981 0.47507939,-0.48313062 0.49498286 0.72220272,
  -0.84392766 0.45912713 0.27746779] }
}
}
DEF SHAPE_40 Shape {
 appearance USE APP_1
 geometry DEF FACE_40 IndexedFaceSet {
  coord DEF COORD_40 Coordinate { point [
  0.79660281 0.14598078 0.9532228,0.83511256 0.14598078 0.91471305,
  0.80819664 0.14795955 0.95093837,0.81871672 0.14899698 0.945299,
  0.82718876 0.14899698 0.93682696,0.83282813 0.14795955 0.92630687,
  0.82762278 4.3288366e-05 0.98424277,0.86613253 4.3288366e-05 0.94573302,
  0.83749535 0.00091601001 0.98276335,0.84670464 0.0014649161 0.97883302,
  0.8546105 0.0016514133 0.97272074,0.86072278 0.0014649161 0.96481487,
  0.86465312 0.00091601001 0.95560559] }
 coordIndex [
  12,1,5,-1,12,7,1,-1,11,5,4,-1,11,12,5,-1,10,4,3,-1,10,11,4,-1,9,3,2,-1,9,10,3,-1,
  8,2,0,-1,8,9,2,-1,6,8,0,-1]
  normalPerVertex TRUE
  normal DEF NORM_40 Normal { vector [
  0.13754267 0.23472817 0.96228099,0.96228099 0.23472817 0.13754267,
  0.31546606 0.26210054 0.91202219,0.56749975 0.28620087 0.7720318,
  0.7720318 0.28620087 0.56749975,0.91202219 0.26210054 0.31546606,
  0.12412709 0.2314775 0.96488892,0.96488892 0.2314775 0.12412709,
  0.21022604 0.24602114 0.94619163,0.46077688 0.27710851 0.84314622,
  0.67719899 0.2877552 0.67719899,0.84314622 0.27710851 0.46077688,
  0.94619163 0.24602114 0.21022604] }
}
}
DEF SHAPE_41 Shape {
 appearance USE APP_1
 geometry DEF FACE_41 IndexedFaceSet {
  coord DEF COORD_41 Coordinate { point [
  0.83929674 -0.18535085 0.91889723,0.800787 -0.18535085 0.95740698,
  0.83701232 -0.18732963 0.93049106,0.83137294 -0.18836705 0.94101114,
  0.8229009 -0.18836705 0.94948318,0.81238082 -0.18732963 0.95512255,
  0.86613253 -0.059098406 0.94573302,0.82762278 -0.059098406 0.98424277,
  0.86465312 -0.059971128 0.95560559,0.86072278 -0.060520034 0.96481487,
  0.8546105 -0.060706531 0.97272074,0.84670464 -0.060520034 0.97883302,
  0.83749535 -0.059971128 0.98276335] }
 coordIndex [
  0,6,8,-1,2,8,9,-1,2,0,8,-1,3,9,10,-1,3,2,9,-1,4,10,11,-1,4,3,10,-1,5,11,12,-1,
  5,4,11,-1,1,12,7,-1,1,5,12,-1]
  normalPerVertex TRUE
  normal DEF NORM_41 Normal { vector [
  0.96225097 -0.23486493 0.13751924,0.13751924 -0.23486493 0.96225097,
  0.91197762 -0.26227212 0.3154523,0.77198222 -0.28640961 0.56746188,
  0.56746188 -0.28640961 0.77198222,0.3154523 -0.26227212 0.91197762,
  0.96488892 -0.2314775 0.12412709,0.12412709 -0.2314775 0.96488892,
  0.94617828 -0.24605606 0.2102453,0.84314117 -0.2771026 0.46078966,
  0.67720292 -0.28773668 0.67720292,0.46078966 -0.2771026 0.84314117,
  0.2102453 -0.24605606 0.94617828] }
}
}
DEF SHAPE_42 Shape {
 appearance USE APP_1
 geometry DEF FACE_42 IndexedFaceSet {
  coord DEF COORD_42 Coordinate { point [
  0.82762278 -0.059098406 0.98424277,0.800787 -0.18535085 0.95740698,
  -0.800787 -0.18535085 0.95740698,-0.82762278 -0.059098406 0.98424277,
  -0.82677165 -0.059055118 0.98425197,0.82677165 -0.059055118 0.98425197] }
 coordIndex [
  4,3,2,-1,5,2,1,-1,5,4,2,-1,0,5,1,-1]
  normalPerVertex TRUE
  normal DEF NORM_42 Normal { vector [
  0 -0.20791169 0.9781476,0 -0.20791169 0.9781476,
  0 -0.20791169 0.9781476,0 -0.20791169 0.9781476,
  0 -0.20791169 0.9781476,0 -0.20791169 0.9781476] }
}
}
DEF SHAPE_43 Shape {
 appearance USE APP_1
 geometry DEF FACE_43 IndexedFaceSet {
  coord DEF COORD_43 Coordinate { point [
  0.800787 -0.21653543 -0.91889723,0.800787 -0.18535085 -0.95740698,
  0.800787 -0.21508514 -0.92948463,0.800787 -0.21084111 -0.939292,
  0.800787 -0.20411603 -0.94759679,0.800787 -0.19540536 -0.95378714,
  0.83929674 -0.18535085 -0.91889723,0.81238082 -0.18732963 -0.95512255,
  0.8229009 -0.18836705 -0.94948318,0.83137294 -0.18836705 -0.94101114,
  0.83701232 -0.18732963 -0.93049106,0.8356769 -0.19540536 -0.91889723,
  0.82948655 -0.20411603 -0.91889723,0.82118176 -0.21084111 -0.91889723,
  0.81137439 -0.21508514 -0.91889723,0.83556352 -0.19258206 -0.92904226,
  0.83099941 -0.20178377 -0.92447815,0.82754847 -0.1995109 -0.93718666,
  0.82130424 -0.19415558 -0.94788651,0.82144129 -0.20839028 -0.93107949,
  0.81627428 -0.20429647 -0.94285656,0.81367031 -0.21410536 -0.9233085,
  0.80891054 -0.19744141 -0.95165228,0.8092456 -0.21168793 -0.93582787,
  0.80336897 -0.20549844 -0.9461107] }
 coordIndex [
  5,1,7,-1,15,9,10,-1,15,10,6,-1,15,6,11,-1,16,11,12,-1,16,12,13,-1,16,15,11,-1,17,15,16,-1,
  17,9,15,-1,18,7,8,-1,18,8,9,-1,18,9,17,-1,19,16,13,-1,19,17,16,-1,20,17,19,-1,20,18,17,-1,
  21,0,2,-1,21,13,14,-1,21,14,0,-1,21,19,13,-1,22,4,5,-1,22,18,20,-1,22,7,18,-1,22,5,7,-1,
  23,2,3,-1,23,20,19,-1,23,21,2,-1,23,19,21,-1,24,3,4,-1,24,23,3,-1,24,4,22,-1,24,22,20,-1,
  24,20,23,-1]
  normalPerVertex TRUE
  normal DEF NORM_43 Normal { vector [
  0.137816 -0.98082287 -0.137816,0.12654982 -0.33601455 -0.93331633,
  0.14364301 -0.95896501 -0.24444386,0.088564372 -0.85845865 -0.50517828,
  0.058712673 -0.62767821 -0.77625569,0.11837324 -0.41670486 -0.90130174,
  0.93955054 -0.32210992 -0.11614641,0.25842474 -0.37189871 -0.89157613,
  0.54387759 -0.35921056 -0.7583963,0.74252995 -0.40855589 -0.53078372,
  0.90317434 -0.32612231 -0.27914216,0.88583792 -0.4526961 -0.10177145,
  0.72613285 -0.68188414 -0.088119845,0.55590906 -0.82068939 -0.13203801,
  0.26818727 -0.96053885 -0.073761192,0.86079845 -0.42910724 -0.27366586,
  0.73002863 -0.65140424 -0.20671409,0.67828945 -0.56778274 -0.46641847,
  0.50854095 -0.47463516 -0.71840627,0.52136022 -0.79221243 -0.31714821,
  0.3952182 -0.68938037 -0.60708919,0.28110623 -0.93921319 -0.197124,
  0.25677243 -0.53183473 -0.80698187,0.25460177 -0.86878359 -0.42472699,
  0.18974334 -0.73547268 -0.650444] }
}
}
DEF SHAPE_44 Shape {
 appearance USE APP_1
 geometry DEF FACE_44 IndexedFaceSet {
  coord DEF COORD_44 Coordinate { point [
  0.800787 -0.21653543 -0.91889723,0.800787 -0.18535085 -0.95740698,
  0.800787 -0.21508514 -0.92948463,0.800787 -0.21084111 -0.939292,
  0.800787 -0.20411603 -0.94759679,0.800787 -0.19540536 -0.95378714,
  -0.800787 -0.21653543 -0.91889723,-0.800787 -0.18535085 -0.95740698,
  -0.800787 -0.19540536 -0.95378714,-0.800787 -0.20411603 -0.94759679,
  -0.800787 -0.21084111 -0.939292,-0.800787 -0.21508514 -0.92948463] }
 coordIndex [
  2,0,6,-1,2,6,11,-1,3,11,10,-1,3,2,11,-1,4,10,9,-1,4,3,10,-1,5,9,8,-1,5,4,9,-1,
  1,8,7,-1,1,5,8,-1]
  normalPerVertex TRUE
  normal DEF NORM_44 Normal { vector [
  0 -0.99074784 -0.13571557,0 -0.33873792 -0.94088077,
  0 -0.97442644 -0.22470674,0 -0.87810297 -0.4784717,
  0 -0.71708539 -0.69698533,0 -0.50323663 -0.86414865,
  0 -0.99074784 -0.13571557,0 -0.33873792 -0.94088077,
  0 -0.42239101 -0.90641372,0 -0.65058382 -0.75943445,
  0 -0.83084496 -0.55650395,0 -0.94989371 -0.3125731] }
}
}
DEF SHAPE_45 Shape {
 appearance USE APP_1
 geometry DEF FACE_45 IndexedFaceSet {
  coord DEF COORD_45 Coordinate { point [
  -0.800787 -0.21653543 -0.91889723,-0.83929674 -0.18535085 -0.91889723,
  -0.81137439 -0.21508514 -0.91889723,-0.82118176 -0.21084111 -0.91889723,
  -0.82948655 -0.20411603 -0.91889723,-0.8356769 -0.19540536 -0.91889723,
  -0.800787 -0.18535085 -0.95740698,-0.83701232 -0.18732963 -0.93049106,
  -0.83137294 -0.18836705 -0.94101114,-0.8229009 -0.18836705 -0.94948318,
  -0.81238082 -0.18732963 -0.95512255,-0.800787 -0.19540536 -0.95378714,
  -0.800787 -0.20411603 -0.94759679,-0.800787 -0.21084111 -0.939292,
  -0.800787 -0.21508514 -0.92948463,-0.80728085 -0.21383226 -0.93167891,
  -0.81947323 -0.21035448 -0.92886266,-0.81435242 -0.20588805 -0.94215641,
  -0.82937706 -0.20382486 -0.92357507,-0.80728085 -0.1972912 -0.95210542,
  -0.82625644 -0.2004967 -0.93779058,-0.81947323 -0.19381342 -0.94928917,
  -0.83504116 -0.1922479 -0.93111084] }
 coordIndex [
  2,14,0,-1,10,6,11,-1,15,13,14,-1,15,14,2,-1,16,2,3,-1,16,15,2,-1,17,12,13,-1,17,15,16,-1,
  17,13,15,-1,18,3,4,-1,18,4,5,-1,18,16,3,-1,19,11,12,-1,19,10,11,-1,19,12,17,-1,20,17,16,-1,
  20,16,18,-1,21,8,9,-1,21,9,10,-1,21,10,19,-1,21,20,8,-1,21,19,17,-1,21,17,20,-1,22,5,1,-1,
  22,1,7,-1,22,7,8,-1,22,8,20,-1,22,18,5,-1,22,20,18,-1]
  normalPerVertex TRUE
  normal DEF NORM_45 Normal { vector [
  -0.13448272 -0.98174783 -0.13448272,-0.93050195 -0.3420344 -0.13106714,
  -0.2545932 -0.95530832 -0.15022753,-0.52640312 -0.84228733 -0.11598191,
  -0.72767428 -0.68333163 -0.059565351,-0.87690616 -0.45892289 -0.14291732,
  -0.12654982 -0.33601455 -0.93331633,-0.90299479 -0.32674688 -0.27899264,
  -0.71371744 -0.42249164 -0.55866647,-0.54157991 -0.3677717 -0.75593331,
  -0.24295751 -0.36130646 -0.90023846,-0.10949083 -0.40480583 -0.90782377,
  -0.15058137 -0.69549873 -0.70257154,-0.15058137 -0.83182098 -0.53422758,
  -0.11471657 -0.97222993 -0.20398304,-0.24246577 -0.90745686 -0.34312154,
  -0.47018172 -0.83123573 -0.29660802,-0.33775027 -0.73147757 -0.59233886,
  -0.72262598 -0.65482393 -0.22139854,-0.24116057 -0.54465001 -0.80324215,
  -0.64295197 -0.60075981 -0.47507939,-0.48313062 -0.49498286 -0.72220272,
  -0.84392766 -0.45912713 -0.27746779] }
}
}
] }
DEF TXFM_4 Transform {
  center 0 0 0
  rotation -0.57735027 0.57735027 0.57735027 -2.0943951
  scale 1 1 1
  scaleOrientation 0 0 1 0
  translation -1.0137795 0.89566929 0.098425197
 children [
DEF SHAPE_46 Shape {
 appearance DEF APP_2 Appearance {
  material Material {
   ambientIntensity 0.1
   diffuseColor 1 1 1
   emissiveColor 0 0 0
   shininess 0.1
   specularColor 0.12 0.12 0.12
   transparency 0
} }
 geometry DEF FACE_46 IndexedFaceSet {
  coord DEF COORD_46 Coordinate { point [
  -0.048228346 0.069657614 0.048758565,-0.048228346 0.16929134 -0.067897538,
  -0.048228346 0.10147 0.038971799,-0.048228346 0.1292888 0.020698258,
  -0.048228346 0.15090487 -0.0046109085,-0.048228346 0.16460162 -0.034945832,
  -0.048228346 0.019611028 0.056685166,-0.048228346 -0.030061979 0.11089374,
  -0.048228346 -0.026852842 0.095397403,-0.048228346 -0.01964378 0.08130966,
  -0.048228346 -0.0089524703 0.069642143,-0.048228346 0.0044533527 0.061232686,
  -0.048228346 -0.039513934 0.24606299,-0.048228346 -0.098425197 0.24194352,
  -0.048228346 -0.088973242 0.10677426,-0.048228346 0.010372772 -0.0016428857,
  -0.048228346 -0.019942578 0.0074521552,-0.048228346 -0.046754224 0.024271069,
  -0.048228346 -0.068136843 0.047606103,-0.048228346 -0.082554967 0.075781588,
  -0.048228346 0.060419358 -0.0095694862,-0.048228346 0.11023622 -0.067897538,
  -0.048228346 0.10789136 -0.051421685,-0.048228346 0.10104299 -0.036254223,
  -0.048228346 0.090234953 -0.02359964,-0.048228346 0.076325549 -0.014462869,
  -0.048228346 0.11023622 -0.1476378,-0.048228346 0.16929134 -0.1476378] }
 coordIndex [
  7,13,12,-1,7,14,13,-1,8,19,14,-1,8,14,7,-1,9,18,19,-1,9,19,8,-1,17,9,10,-1,17,18,9,-1,
  16,10,11,-1,16,17,10,-1,15,11,6,-1,15,16,11,-1,20,6,0,-1,20,15,6,-1,25,0,2,-1,25,20,0,-1,
  24,2,3,-1,24,25,2,-1,4,23,24,-1,4,24,3,-1,5,22,23,-1,5,23,4,-1,1,21,22,-1,1,22,5,-1,
  27,26,21,-1,27,21,1,-1]
  normalPerVertex TRUE
  normal DEF NORM_46 Normal { vector [
  -1 0 0,-1 0 0,
  -1 0 0,-1 0 0,
  -1 0 0,-1 0 0,
  -1 0 0,-1 0 0,
  -1 0 0,-1 0 0,
  -1 0 0,-1 0 0,
  -1 0 0,-1 0 0,
  -1 0 0,-1 0 0,
  -1 0 0,-1 0 0,
  -1 0 0,-1 0 0,
  -1 0 0,-1 0 0,
  -1 0 0,-1 0 0,
  -1 0 0,-1 0 0,
  -1 0 0,-1 0 0] }
}
}
DEF SHAPE_47 Shape {
 appearance USE APP_2
 geometry DEF FACE_47 IndexedFaceSet {
  coord DEF COORD_47 Coordinate { point [
  0.048228346 0.069657614 0.048758565,-0.048228346 0.069657614 0.048758565,
  0.048228346 0.16929134 -0.067897538,0.048228346 0.16460162 -0.034945832,
  0.048228346 0.15090487 -0.0046109085,0.048228346 0.1292888 0.020698258,
  0.048228346 0.10147 0.038971799,-0.048228346 0.16929134 -0.067897538,
  -0.048228346 0.10147 0.038971799,-0.048228346 0.1292888 0.020698258,
  -0.048228346 0.15090487 -0.0046109085,-0.048228346 0.16460162 -0.034945832] }
 coordIndex [
  8,1,0,-1,8,0,6,-1,9,6,5,-1,9,8,6,-1,10,5,4,-1,10,9,5,-1,11,4,3,-1,11,10,4,-1,
  7,3,2,-1,7,11,3,-1]
  normalPerVertex TRUE
  normal DEF NORM_47 Normal { vector [
  0 0.29404033 0.95579301,0 0.29404033 0.95579301,
  0 0.99002366 0.14090123,0 0.97243546 0.23317219,
  0 0.86877067 0.49521463,0 0.69611451 0.71793077,
  0 0.46817807 0.88363414,0 0.99002366 0.14090123,
  0 0.38242387 0.923987,0 0.62502339 0.78060602,
  0 0.81798815 0.57523507,0 0.94599432 0.32418319] }
}
}
DEF SHAPE_48 Shape {
 appearance USE APP_2
 geometry DEF FACE_48 IndexedFaceSet {
  coord DEF COORD_48 Coordinate { point [
  0.048228346 0.16929134 -0.067897538,-0.048228346 0.16929134 -0.067897538,
  -0.048228346 0.16929134 -0.1476378,0.048228346 0.16929134 -0.1476378] }
 coordIndex [
  0,2,1,-1,0,3,2,-1]
  normalPerVertex TRUE
  normal DEF NORM_48 Normal { vector [
  0 1 0,0 1 0,
  0 1 0,0 1 0] }
}
}
DEF SHAPE_49 Shape {
 appearance USE APP_2
 geometry DEF FACE_49 IndexedFaceSet {
  coord DEF COORD_49 Coordinate { point [
  -0.048228346 0.11023622 -0.1476378,-0.048228346 0.16929134 -0.1476378,
  0.048228346 0.11023622 -0.1476378,0.048228346 0.16929134 -0.1476378] }
 coordIndex [
  3,0,1,-1,3,2,0,-1]
  normalPerVertex TRUE
  normal DEF NORM_49 Normal { vector [
  0 0 -1,0 0 -1,
  0 0 -1,0 0 -1] }
}
}
DEF SHAPE_50 Shape {
 appearance USE APP_2
 geometry DEF FACE_50 IndexedFaceSet {
  coord DEF COORD_50 Coordinate { point [
  -0.048228346 0.11023622 -0.067897538,0.048228346 0.11023622 -0.067897538,
  0.048228346 0.11023622 -0.1476378,-0.048228346 0.11023622 -0.1476378] }
 coordIndex [
  2,1,0,-1,2,0,3,-1]
  normalPerVertex TRUE
  normal DEF NORM_50 Normal { vector [
  0 -1 0,0 -1 0,
  0 -1 0,0 -1 0] }
}
}
DEF SHAPE_51 Shape {
 appearance USE APP_2
 geometry DEF FACE_51 IndexedFaceSet {
  coord DEF COORD_51 Coordinate { point [
  -0.048228346 0.11023622 -0.067897538,0.048228346 0.11023622 -0.067897538,
  -0.048228346 0.060419358 -0.0095694862,-0.048228346 0.10789136 -0.051421685,
  -0.048228346 0.10104299 -0.036254223,-0.048228346 0.090234953 -0.02359964,
  -0.048228346 0.076325549 -0.014462869,0.048228346 0.060419358 -0.0095694862,
  0.048228346 0.076325549 -0.014462869,0.048228346 0.090234953 -0.02359964,
  0.048228346 0.10104299 -0.036254223,0.048228346 0.10789136 -0.051421685] }
 coordIndex [
  11,0,1,-1,11,3,0,-1,10,4,3,-1,10,3,11,-1,9,5,4,-1,9,4,10,-1,8,6,5,-1,8,5,9,-1,
  7,2,6,-1,7,6,8,-1]
  normalPerVertex TRUE
  normal DEF NORM_51 Normal { vector [
  0 -0.99002366 -0.14090123,0 -0.99002366 -0.14090123,
  0 -0.29404033 -0.95579301,0 -0.94599432 -0.32418319,
  0 -0.81798815 -0.57523507,0 -0.62502339 -0.78060602,
  0 -0.38242387 -0.923987,0 -0.29404033 -0.95579301,
  0 -0.46817807 -0.88363414,0 -0.69611451 -0.71793077,
  0 -0.86877067 -0.49521463,0 -0.97243546 -0.23317219] }
}
}
DEF SHAPE_52 Shape {
 appearance USE APP_2
 geometry DEF FACE_52 IndexedFaceSet {
  coord DEF COORD_52 Coordinate { point [
  0.048228346 0.010372772 -0.0016428857,-0.048228346 0.010372772 -0.0016428857,
  0.048228346 0.060419358 -0.0095694862,-0.048228346 0.060419358 -0.0095694862] }
 coordIndex [
  2,0,1,-1,2,1,3,-1]
  normalPerVertex TRUE
  normal DEF NORM_52 Normal { vector [
  0 -0.15643447 -0.98768834,0 -0.15643447 -0.98768834,
  0 -0.15643447 -0.98768834,0 -0.15643447 -0.98768834] }
}
}
DEF SHAPE_53 Shape {
 appearance USE APP_2
 geometry DEF FACE_53 IndexedFaceSet {
  coord DEF COORD_53 Coordinate { point [
  0.048228346 0.010372772 -0.0016428857,-0.048228346 0.010372772 -0.0016428857,
  0.048228346 -0.088973242 0.10677426,0.048228346 -0.082554967 0.075781588,
  0.048228346 -0.068136843 0.047606103,0.048228346 -0.046754224 0.024271069,
  0.048228346 -0.019942578 0.0074521552,-0.048228346 -0.088973242 0.10677426,
  -0.048228346 -0.019942578 0.0074521552,-0.048228346 -0.046754224 0.024271069,
  -0.048228346 -0.068136843 0.047606103,-0.048228346 -0.082554967 0.075781588] }
 coordIndex [
  8,1,0,-1,8,0,6,-1,9,6,5,-1,9,8,6,-1,10,5,4,-1,10,9,5,-1,11,4,3,-1,11,10,4,-1,
  7,3,2,-1,7,11,3,-1]
  normalPerVertex TRUE
  normal DEF NORM_53 Normal { vector [
  0 -0.28736052 -0.95782249,0 -0.28736052 -0.95782249,
  0 -0.97922281 -0.2027873,0 -0.957221 -0.28935785,
  0 -0.84601162 -0.53316446,0 -0.67405083 -0.73868497,
  0 -0.45368699 -0.8911611,0 -0.97922281 -0.2027873,
  0 -0.37168406 -0.92835928,0 -0.60487038 -0.79632394,
  0 -0.79462145 -0.60710523,0 -0.92731139 -0.37429077] }
}
}
DEF SHAPE_54 Shape {
 appearance USE APP_2
 geometry DEF FACE_54 IndexedFaceSet {
  coord DEF COORD_54 Coordinate { point [
  0.048228346 -0.088973242 0.10677426,-0.048228346 -0.088973242 0.10677426,
  -0.048228346 -0.098425197 0.24194352,0.048228346 -0.098425197 0.24194352] }
 coordIndex [
  0,2,1,-1,0,3,2,-1]
  normalPerVertex TRUE
  normal DEF NORM_54 Normal { vector [
  0 -0.99756405 -0.069756474,0 -0.99756405 -0.069756474,
  0 -0.99756405 -0.069756474,0 -0.99756405 -0.069756474] }
}
}
DEF SHAPE_55 Shape {
 appearance USE APP_2
 geometry DEF FACE_55 IndexedFaceSet {
  coord DEF COORD_55 Coordinate { point [
  -0.048228346 -0.039513934 0.24606299,-0.048228346 -0.098425197 0.24194352,
  0.048228346 -0.039513934 0.24606299,0.048228346 -0.098425197 0.24194352] }
 coordIndex [
  3,0,1,-1,3,2,0,-1]
  normalPerVertex TRUE
  normal DEF NORM_55 Normal { vector [
  0 -0.069756474 0.99756405,0 -0.069756474 0.99756405,
  0 -0.069756474 0.99756405,0 -0.069756474 0.99756405] }
}
}
DEF SHAPE_56 Shape {
 appearance USE APP_2
 geometry DEF FACE_56 IndexedFaceSet {
  coord DEF COORD_56 Coordinate { point [
  -0.048228346 -0.030061979 0.11089374,0.048228346 -0.030061979 0.11089374,
  0.048228346 -0.039513934 0.24606299,-0.048228346 -0.039513934 0.24606299] }
 coordIndex [
  2,1,0,-1,2,0,3,-1]
  normalPerVertex TRUE
  normal DEF NORM_56 Normal { vector [
  0 0.99756405 0.069756474,0 0.99756405 0.069756474,
  0 0.99756405 0.069756474,0 0.99756405 0.069756474] }
}
}
DEF SHAPE_57 Shape {
 appearance USE APP_2
 geometry DEF FACE_57 IndexedFaceSet {
  coord DEF COORD_57 Coordinate { point [
  -0.048228346 -0.030061979 0.11089374,0.048228346 -0.030061979 0.11089374,
  -0.048228346 0.019611028 0.056685166,-0.048228346 -0.026852842 0.095397403,
  -0.048228346 -0.01964378 0.08130966,-0.048228346 -0.0089524703 0.069642143,
  -0.048228346 0.0044533527 0.061232686,0.048228346 0.019611028 0.056685166,
  0.048228346 0.0044533527 0.061232686,0.048228346 -0.0089524703 0.069642143,
  0.048228346 -0.01964378 0.08130966,0.048228346 -0.026852842 0.095397403] }
 coordIndex [
  11,0,1,-1,11,3,0,-1,10,4,3,-1,10,3,11,-1,9,5,4,-1,9,4,10,-1,8,6,5,-1,8,5,9,-1,
  7,2,6,-1,7,6,8,-1]
  normalPerVertex TRUE
  normal DEF NORM_57 Normal { vector [
  0 0.97922281 0.2027873,0 0.97922281 0.2027873,
  0 0.28736052 0.95782249,0 0.92731139 0.37429077,
  0 0.79462145 0.60710523,0 0.60487038 0.79632394,
  0 0.37168406 0.92835928,0 0.28736052 0.95782249,
  0 0.45368699 0.8911611,0 0.67405083 0.73868497,
  0 0.84601162 0.53316446,0 0.957221 0.28935785] }
}
}
DEF SHAPE_58 Shape {
 appearance USE APP_2
 geometry DEF FACE_58 IndexedFaceSet {
  coord DEF COORD_58 Coordinate { point [
  0.048228346 0.069657614 0.048758565,-0.048228346 0.069657614 0.048758565,
  0.048228346 0.019611028 0.056685166,-0.048228346 0.019611028 0.056685166] }
 coordIndex [
  2,0,1,-1,2,1,3,-1]
  normalPerVertex TRUE
  normal DEF NORM_58 Normal { vector [
  0 0.15643447 0.98768834,0 0.15643447 0.98768834,
  0 0.15643447 0.98768834,0 0.15643447 0.98768834] }
}
}
DEF SHAPE_59 Shape {
 appearance USE APP_2
 geometry DEF FACE_59 IndexedFaceSet {
  coord DEF COORD_59 Coordinate { point [
  0.048228346 0.16929134 -0.067897538,0.048228346 0.069657614 0.048758565,
  0.048228346 0.16460162 -0.034945832,0.048228346 0.15090487 -0.0046109085,
  0.048228346 0.1292888 0.020698258,0.048228346 0.10147 0.038971799,
  0.048228346 0.16929134 -0.1476378,0.048228346 0.11023622 -0.1476378,
  0.048228346 0.11023622 -0.067897538,0.048228346 0.060419358 -0.0095694862,
  0.048228346 0.076325549 -0.014462869,0.048228346 0.090234953 -0.02359964,
  0.048228346 0.10104299 -0.036254223,0.048228346 0.10789136 -0.051421685,
  0.048228346 0.010372772 -0.0016428857,0.048228346 -0.088973242 0.10677426,
  0.048228346 -0.082554967 0.075781588,0.048228346 -0.068136843 0.047606103,
  0.048228346 -0.046754224 0.024271069,0.048228346 -0.019942578 0.0074521552,
  0.048228346 -0.098425197 0.24194352,0.048228346 -0.039513934 0.24606299,
  0.048228346 -0.030061979 0.11089374,0.048228346 0.019611028 0.056685166,
  0.048228346 0.0044533527 0.061232686,0.048228346 -0.0089524703 0.069642143,
  0.048228346 -0.01964378 0.08130966,0.048228346 -0.026852842 0.095397403] }
 coordIndex [
  22,20,15,-1,22,21,20,-1,27,15,16,-1,27,22,15,-1,26,16,17,-1,26,27,16,-1,18,25,26,-1,18,26,17,-1,
  19,24,25,-1,19,25,18,-1,14,23,24,-1,14,24,19,-1,9,1,23,-1,9,23,14,-1,10,5,1,-1,10,1,9,-1,
  11,4,5,-1,11,5,10,-1,3,11,12,-1,3,4,11,-1,2,12,13,-1,2,3,12,-1,0,13,8,-1,0,2,13,-1,
  6,8,7,-1,6,0,8,-1]
  normalPerVertex TRUE
  normal DEF NORM_59 Normal { vector [
  1 0 0,1 0 0,
  1 0 0,1 0 0,
  1 0 0,1 0 0,
  1 0 0,1 0 0,
  1 0 0,1 0 0,
  1 0 0,1 0 0,
  1 0 0,1 0 0,
  1 0 0,1 0 0,
  1 0 0,1 0 0,
  1 0 0,1 0 0,
  1 0 0,1 0 0,
  1 0 0,1 0 0,
  1 0 0,1 0 0,
  1 0 0,1 0 0] }
}
}
] }
DEF TXFM_5 Transform {
  center 0 0 0
  rotation -0.57735027 0.57735027 0.57735027 -2.0943951
  scale 1 1 1
  scaleOrientation 0 0 1 0
  translation -1.0137795 0.63976378 0.098425197
 children [
DEF SHAPE_60 Shape {
 appearance USE APP_2
 geometry DEF FACE_60 IndexedFaceSet {
  coord DEF COORD_60 Coordinate { point [
  -0.048228346 0.069657614 0.048758565,-0.048228346 0.16929134 -0.067897538,
  -0.048228346 0.10147 0.038971799,-0.048228346 0.1292888 0.020698258,
  -0.048228346 0.15090487 -0.0046109085,-0.048228346 0.16460162 -0.034945832,
  -0.048228346 0.019611028 0.056685166,-0.048228346 -0.030061979 0.11089374,
  -0.048228346 -0.026852842 0.095397403,-0.048228346 -0.01964378 0.08130966,
  -0.048228346 -0.0089524703 0.069642143,-0.048228346 0.0044533527 0.061232686,
  -0.048228346 -0.039513934 0.24606299,-0.048228346 -0.098425197 0.24194352,
  -0.048228346 -0.088973242 0.10677426,-0.048228346 0.010372772 -0.0016428857,
  -0.048228346 -0.019942578 0.0074521552,-0.048228346 -0.046754224 0.024271069,
  -0.048228346 -0.068136843 0.047606103,-0.048228346 -0.082554967 0.075781588,
  -0.048228346 0.060419358 -0.0095694862,-0.048228346 0.11023622 -0.067897538,
  -0.048228346 0.10789136 -0.051421685,-0.048228346 0.10104299 -0.036254223,
  -0.048228346 0.090234953 -0.02359964,-0.048228346 0.076325549 -0.014462869,
  -0.048228346 0.11023622 -0.1476378,-0.048228346 0.16929134 -0.1476378] }
 coordIndex [
  7,13,12,-1,7,14,13,-1,8,19,14,-1,8,14,7,-1,9,18,19,-1,9,19,8,-1,17,9,10,-1,17,18,9,-1,
  16,10,11,-1,16,17,10,-1,15,11,6,-1,15,16,11,-1,20,6,0,-1,20,15,6,-1,25,0,2,-1,25,20,0,-1,
  24,2,3,-1,24,25,2,-1,4,23,24,-1,4,24,3,-1,5,22,23,-1,5,23,4,-1,1,21,22,-1,1,22,5,-1,
  27,26,21,-1,27,21,1,-1]
  normalPerVertex TRUE
  normal DEF NORM_60 Normal { vector [
  -1 0 0,-1 0 0,
  -1 0 0,-1 0 0,
  -1 0 0,-1 0 0,
  -1 0 0,-1 0 0,
  -1 0 0,-1 0 0,
  -1 0 0,-1 0 0,
  -1 0 0,-1 0 0,
  -1 0 0,-1 0 0,
  -1 0 0,-1 0 0,
  -1 0 0,-1 0 0,
  -1 0 0,-1 0 0,
  -1 0 0,-1 0 0,
  -1 0 0,-1 0 0,
  -1 0 0,-1 0 0] }
}
}
DEF SHAPE_61 Shape {
 appearance USE APP_2
 geometry DEF FACE_61 IndexedFaceSet {
  coord DEF COORD_61 Coordinate { point [
  0.048228346 0.069657614 0.048758565,-0.048228346 0.069657614 0.048758565,
  0.048228346 0.16929134 -0.067897538,0.048228346 0.16460162 -0.034945832,
  0.048228346 0.15090487 -0.0046109085,0.048228346 0.1292888 0.020698258,
  0.048228346 0.10147 0.038971799,-0.048228346 0.16929134 -0.067897538,
  -0.048228346 0.10147 0.038971799,-0.048228346 0.1292888 0.020698258,
  -0.048228346 0.15090487 -0.0046109085,-0.048228346 0.16460162 -0.034945832] }
 coordIndex [
  8,1,0,-1,8,0,6,-1,9,6,5,-1,9,8,6,-1,10,5,4,-1,10,9,5,-1,11,4,3,-1,11,10,4,-1,
  7,3,2,-1,7,11,3,-1]
  normalPerVertex TRUE
  normal DEF NORM_61 Normal { vector [
  0 0.29404033 0.95579301,0 0.29404033 0.95579301,
  0 0.99002366 0.14090123,0 0.97243546 0.23317219,
  0 0.86877067 0.49521463,0 0.69611451 0.71793077,
  0 0.46817807 0.88363414,0 0.99002366 0.14090123,
  0 0.38242387 0.923987,0 0.62502339 0.78060602,
  0 0.81798815 0.57523507,0 0.94599432 0.32418319] }
}
}
DEF SHAPE_62 Shape {
 appearance USE APP_2
 geometry DEF FACE_62 IndexedFaceSet {
  coord DEF COORD_62 Coordinate { point [
  0.048228346 0.16929134 -0.067897538,-0.048228346 0.16929134 -0.067897538,
  -0.048228346 0.16929134 -0.1476378,0.048228346 0.16929134 -0.1476378] }
 coordIndex [
  0,2,1,-1,0,3,2,-1]
  normalPerVertex TRUE
  normal DEF NORM_62 Normal { vector [
  0 1 0,0 1 0,
  0 1 0,0 1 0] }
}
}
DEF SHAPE_63 Shape {
 appearance USE APP_2
 geometry DEF FACE_63 IndexedFaceSet {
  coord DEF COORD_63 Coordinate { point [
  -0.048228346 0.11023622 -0.1476378,-0.048228346 0.16929134 -0.1476378,
  0.048228346 0.11023622 -0.1476378,0.048228346 0.16929134 -0.1476378] }
 coordIndex [
  3,0,1,-1,3,2,0,-1]
  normalPerVertex TRUE
  normal DEF NORM_63 Normal { vector [
  0 0 -1,0 0 -1,
  0 0 -1,0 0 -1] }
}
}
DEF SHAPE_64 Shape {
 appearance USE APP_2
 geometry DEF FACE_64 IndexedFaceSet {
  coord DEF COORD_64 Coordinate { point [
  -0.048228346 0.11023622 -0.067897538,0.048228346 0.11023622 -0.067897538,
  0.048228346 0.11023622 -0.1476378,-0.048228346 0.11023622 -0.1476378] }
 coordIndex [
  2,1,0,-1,2,0,3,-1]
  normalPerVertex TRUE
  normal DEF NORM_64 Normal { vector [
  0 -1 0,0 -1 0,
  0 -1 0,0 -1 0] }
}
}
DEF SHAPE_65 Shape {
 appearance USE APP_2
 geometry DEF FACE_65 IndexedFaceSet {
  coord DEF COORD_65 Coordinate { point [
  -0.048228346 0.11023622 -0.067897538,0.048228346 0.11023622 -0.067897538,
  -0.048228346 0.060419358 -0.0095694862,-0.048228346 0.10789136 -0.051421685,
  -0.048228346 0.10104299 -0.036254223,-0.048228346 0.090234953 -0.02359964,
  -0.048228346 0.076325549 -0.014462869,0.048228346 0.060419358 -0.0095694862,
  0.048228346 0.076325549 -0.014462869,0.048228346 0.090234953 -0.02359964,
  0.048228346 0.10104299 -0.036254223,0.048228346 0.10789136 -0.051421685] }
 coordIndex [
  11,0,1,-1,11,3,0,-1,10,4,3,-1,10,3,11,-1,9,5,4,-1,9,4,10,-1,8,6,5,-1,8,5,9,-1,
  7,2,6,-1,7,6,8,-1]
  normalPerVertex TRUE
  normal DEF NORM_65 Normal { vector [
  0 -0.99002366 -0.14090123,0 -0.99002366 -0.14090123,
  0 -0.29404033 -0.95579301,0 -0.94599432 -0.32418319,
  0 -0.81798815 -0.57523507,0 -0.62502339 -0.78060602,
  0 -0.38242387 -0.923987,0 -0.29404033 -0.95579301,
  0 -0.46817807 -0.88363414,0 -0.69611451 -0.71793077,
  0 -0.86877067 -0.49521463,0 -0.97243546 -0.23317219] }
}
}
DEF SHAPE_66 Shape {
 appearance USE APP_2
 geometry DEF FACE_66 IndexedFaceSet {
  coord DEF COORD_66 Coordinate { point [
  0.048228346 0.010372772 -0.0016428857,-0.048228346 0.010372772 -0.0016428857,
  0.048228346 0.060419358 -0.0095694862,-0.048228346 0.060419358 -0.0095694862] }
 coordIndex [
  2,0,1,-1,2,1,3,-1]
  normalPerVertex TRUE
  normal DEF NORM_66 Normal { vector [
  0 -0.15643447 -0.98768834,0 -0.15643447 -0.98768834,
  0 -0.15643447 -0.98768834,0 -0.15643447 -0.98768834] }
}
}
DEF SHAPE_67 Shape {
 appearance USE APP_2
 geometry DEF FACE_67 IndexedFaceSet {
  coord DEF COORD_67 Coordinate { point [
  0.048228346 0.010372772 -0.0016428857,-0.048228346 0.010372772 -0.0016428857,
  0.048228346 -0.088973242 0.10677426,0.048228346 -0.082554967 0.075781588,
  0.048228346 -0.068136843 0.047606103,0.048228346 -0.046754224 0.024271069,
  0.048228346 -0.019942578 0.0074521552,-0.048228346 -0.088973242 0.10677426,
  -0.048228346 -0.019942578 0.0074521552,-0.048228346 -0.046754224 0.024271069,
  -0.048228346 -0.068136843 0.047606103,-0.048228346 -0.082554967 0.075781588] }
 coordIndex [
  8,1,0,-1,8,0,6,-1,9,6,5,-1,9,8,6,-1,10,5,4,-1,10,9,5,-1,11,4,3,-1,11,10,4,-1,
  7,3,2,-1,7,11,3,-1]
  normalPerVertex TRUE
  normal DEF NORM_67 Normal { vector [
  0 -0.28736052 -0.95782249,0 -0.28736052 -0.95782249,
  0 -0.97922281 -0.2027873,0 -0.957221 -0.28935785,
  0 -0.84601162 -0.53316446,0 -0.67405083 -0.73868497,
  0 -0.45368699 -0.8911611,0 -0.97922281 -0.2027873,
  0 -0.37168406 -0.92835928,0 -0.60487038 -0.79632394,
  0 -0.79462145 -0.60710523,0 -0.92731139 -0.37429077] }
}
}
DEF SHAPE_68 Shape {
 appearance USE APP_2
 geometry DEF FACE_68 IndexedFaceSet {
  coord DEF COORD_68 Coordinate { point [
  0.048228346 -0.088973242 0.10677426,-0.048228346 -0.088973242 0.10677426,
  -0.048228346 -0.098425197 0.24194352,0.048228346 -0.098425197 0.24194352] }
 coordIndex [
  0,2,1,-1,0,3,2,-1]
  normalPerVertex TRUE
  normal DEF NORM_68 Normal { vector [
  0 -0.99756405 -0.069756474,0 -0.99756405 -0.069756474,
  0 -0.99756405 -0.069756474,0 -0.99756405 -0.069756474] }
}
}
DEF SHAPE_69 Shape {
 appearance USE APP_2
 geometry DEF FACE_69 IndexedFaceSet {
  coord DEF COORD_69 Coordinate { point [
  -0.048228346 -0.039513934 0.24606299,-0.048228346 -0.098425197 0.24194352,
  0.048228346 -0.039513934 0.24606299,0.048228346 -0.098425197 0.24194352] }
 coordIndex [
  3,0,1,-1,3,2,0,-1]
  normalPerVertex TRUE
  normal DEF NORM_69 Normal { vector [
  0 -0.069756474 0.99756405,0 -0.069756474 0.99756405,
  0 -0.069756474 0.99756405,0 -0.069756474 0.99756405] }
}
}
DEF SHAPE_70 Shape {
 appearance USE APP_2
 geometry DEF FACE_70 IndexedFaceSet {
  coord DEF COORD_70 Coordinate { point [
  -0.048228346 -0.030061979 0.11089374,0.048228346 -0.030061979 0.11089374,
  0.048228346 -0.039513934 0.24606299,-0.048228346 -0.039513934 0.24606299] }
 coordIndex [
  2,1,0,-1,2,0,3,-1]
  normalPerVertex TRUE
  normal DEF NORM_70 Normal { vector [
  0 0.99756405 0.069756474,0 0.99756405 0.069756474,
  0 0.99756405 0.069756474,0 0.99756405 0.069756474] }
}
}
DEF SHAPE_71 Shape {
 appearance USE APP_2
 geometry DEF FACE_71 IndexedFaceSet {
  coord DEF COORD_71 Coordinate { point [
  -0.048228346 -0.030061979 0.11089374,0.048228346 -0.030061979 0.11089374,
  -0.048228346 0.019611028 0.056685166,-0.048228346 -0.026852842 0.095397403,
  -0.048228346 -0.01964378 0.08130966,-0.048228346 -0.0089524703 0.069642143,
  -0.048228346 0.0044533527 0.061232686,0.048228346 0.019611028 0.056685166,
  0.048228346 0.0044533527 0.061232686,0.048228346 -0.0089524703 0.069642143,
  0.048228346 -0.01964378 0.08130966,0.048228346 -0.026852842 0.095397403] }
 coordIndex [
  11,0,1,-1,11,3,0,-1,10,4,3,-1,10,3,11,-1,9,5,4,-1,9,4,10,-1,8,6,5,-1,8,5,9,-1,
  7,2,6,-1,7,6,8,-1]
  normalPerVertex TRUE
  normal DEF NORM_71 Normal { vector [
  0 0.97922281 0.2027873,0 0.97922281 0.2027873,
  0 0.28736052 0.95782249,0 0.92731139 0.37429077,
  0 0.79462145 0.60710523,0 0.60487038 0.79632394,
  0 0.37168406 0.92835928,0 0.28736052 0.95782249,
  0 0.45368699 0.8911611,0 0.67405083 0.73868497,
  0 0.84601162 0.53316446,0 0.957221 0.28935785] }
}
}
DEF SHAPE_72 Shape {
 appearance USE APP_2
 geometry DEF FACE_72 IndexedFaceSet {
  coord DEF COORD_72 Coordinate { point [
  0.048228346 0.069657614 0.048758565,-0.048228346 0.069657614 0.048758565,
  0.048228346 0.019611028 0.056685166,-0.048228346 0.019611028 0.056685166] }
 coordIndex [
  2,0,1,-1,2,1,3,-1]
  normalPerVertex TRUE
  normal DEF NORM_72 Normal { vector [
  0 0.15643447 0.98768834,0 0.15643447 0.98768834,
  0 0.15643447 0.98768834,0 0.15643447 0.98768834] }
}
}
DEF SHAPE_73 Shape {
 appearance USE APP_2
 geometry DEF FACE_73 IndexedFaceSet {
  coord DEF COORD_73 Coordinate { point [
  0.048228346 0.16929134 -0.067897538,0.048228346 0.069657614 0.048758565,
  0.048228346 0.16460162 -0.034945832,0.048228346 0.15090487 -0.0046109085,
  0.048228346 0.1292888 0.020698258,0.048228346 0.10147 0.038971799,
  0.048228346 0.16929134 -0.1476378,0.048228346 0.11023622 -0.1476378,
  0.048228346 0.11023622 -0.067897538,0.048228346 0.060419358 -0.0095694862,
  0.048228346 0.076325549 -0.014462869,0.048228346 0.090234953 -0.02359964,
  0.048228346 0.10104299 -0.036254223,0.048228346 0.10789136 -0.051421685,
  0.048228346 0.010372772 -0.0016428857,0.048228346 -0.088973242 0.10677426,
  0.048228346 -0.082554967 0.075781588,0.048228346 -0.068136843 0.047606103,
  0.048228346 -0.046754224 0.024271069,0.048228346 -0.019942578 0.0074521552,
  0.048228346 -0.098425197 0.24194352,0.048228346 -0.039513934 0.24606299,
  0.048228346 -0.030061979 0.11089374,0.048228346 0.019611028 0.056685166,
  0.048228346 0.0044533527 0.061232686,0.048228346 -0.0089524703 0.069642143,
  0.048228346 -0.01964378 0.08130966,0.048228346 -0.026852842 0.095397403] }
 coordIndex [
  22,20,15,-1,22,21,20,-1,27,15,16,-1,27,22,15,-1,26,16,17,-1,26,27,16,-1,18,25,26,-1,18,26,17,-1,
  19,24,25,-1,19,25,18,-1,14,23,24,-1,14,24,19,-1,9,1,23,-1,9,23,14,-1,10,5,1,-1,10,1,9,-1,
  11,4,5,-1,11,5,10,-1,3,11,12,-1,3,4,11,-1,2,12,13,-1,2,3,12,-1,0,13,8,-1,0,2,13,-1,
  6,8,7,-1,6,0,8,-1]
  normalPerVertex TRUE
  normal DEF NORM_73 Normal { vector [
  1 0 0,1 0 0,
  1 0 0,1 0 0,
  1 0 0,1 0 0,
  1 0 0,1 0 0,
  1 0 0,1 0 0,
  1 0 0,1 0 0,
  1 0 0,1 0 0,
  1 0 0,1 0 0,
  1 0 0,1 0 0,
  1 0 0,1 0 0,
  1 0 0,1 0 0,
  1 0 0,1 0 0,
  1 0 0,1 0 0,
  1 0 0,1 0 0] }
}
}
] }
DEF TXFM_6 Transform {
  center 0 0 0
  rotation -0.57735027 0.57735027 0.57735027 -2.0943951
  scale 1 1 1
  scaleOrientation 0 0 1 0
  translation -1.0137795 0.38385827 0.098425197
 children [
 USE SHAPE_60
 USE SHAPE_61
 USE SHAPE_62
 USE SHAPE_63
 USE SHAPE_64
 USE SHAPE_65
 USE SHAPE_66
 USE SHAPE_67
 USE SHAPE_68
 USE SHAPE_69
 USE SHAPE_70
 USE SHAPE_71
 USE SHAPE_72
 USE SHAPE_73
] }
DEF TXFM_7 Transform {
  center 0 0 0
  rotation -0.57735027 0.57735027 0.57735027 -2.0943951
  scale 1 1 1
  scaleOrientation 0 0 1 0
  translation -1.0137795 0.12795276 0.098425197
 children [
 USE SHAPE_60
 USE SHAPE_61
 USE SHAPE_62
 USE SHAPE_63
 USE SHAPE_64
 USE SHAPE_65
 USE SHAPE_66
 USE SHAPE_67
 USE SHAPE_68
 USE SHAPE_69
 USE SHAPE_70
 USE SHAPE_71
 USE SHAPE_72
 USE SHAPE_73
] }
DEF TXFM_8 Transform {
  center 0 0 0
  rotation -0.57735027 0.57735027 0.57735027 -2.0943951
  scale 1 1 1
  scaleOrientation 0 0 1 0
  translation -1.0137795 -0.12795276 0.098425197
 children [
 USE SHAPE_60
 USE SHAPE_61
 USE SHAPE_62
 USE SHAPE_63
 USE SHAPE_64
 USE SHAPE_65
 USE SHAPE_66
 USE SHAPE_67
 USE SHAPE_68
 USE SHAPE_69
 USE SHAPE_70
 USE SHAPE_71
 USE SHAPE_72
 USE SHAPE_73
] }
DEF TXFM_9 Transform {
  center 0 0 0
  rotation -0.57735027 0.57735027 0.57735027 -2.0943951
  scale 1 1 1
  scaleOrientation 0 0 1 0
  translation -1.0137795 -0.38385827 0.098425197
 children [
 USE SHAPE_60
 USE SHAPE_61
 USE SHAPE_62
 USE SHAPE_63
 USE SHAPE_64
 USE SHAPE_65
 USE SHAPE_66
 USE SHAPE_67
 USE SHAPE_68
 USE SHAPE_69
 USE SHAPE_70
 USE SHAPE_71
 USE SHAPE_72
 USE SHAPE_73
] }
DEF TXFM_10 Transform {
  center 0 0 0
  rotation -0.57735027 0.57735027 0.57735027 -2.0943951
  scale 1 1 1
  scaleOrientation 0 0 1 0
  translation -1.0137795 -0.63976378 0.098425197
 children [
 USE SHAPE_60
 USE SHAPE_61
 USE SHAPE_62
 USE SHAPE_63
 USE SHAPE_64
 USE SHAPE_65
 USE SHAPE_66
 USE SHAPE_67
 USE SHAPE_68
 USE SHAPE_69
 USE SHAPE_70
 USE SHAPE_71
 USE SHAPE_72
 USE SHAPE_73
] }
DEF TXFM_11 Transform {
  center 0 0 0
  rotation -0.57735027 0.57735027 0.57735027 -2.0943951
  scale 1 1 1
  scaleOrientation 0 0 1 0
  translation -1.0137795 -0.89566929 0.098425197
 children [
 USE SHAPE_60
 USE SHAPE_61
 USE SHAPE_62
 USE SHAPE_63
 USE SHAPE_64
 USE SHAPE_65
 USE SHAPE_66
 USE SHAPE_67
 USE SHAPE_68
 USE SHAPE_69
 USE SHAPE_70
 USE SHAPE_71
 USE SHAPE_72
 USE SHAPE_73
] }
DEF TXFM_12 Transform {
  center 0 0 0
  rotation 0.57735027 0.57735027 0.57735027 2.0943951
  scale 1 1 1
  scaleOrientation 0 0 1 0
  translation 1.0137795 -0.89566929 0.098425197
 children [
 USE SHAPE_60
 USE SHAPE_61
 USE SHAPE_62
 USE SHAPE_63
 USE SHAPE_64
 USE SHAPE_65
 USE SHAPE_66
 USE SHAPE_67
 USE SHAPE_68
 USE SHAPE_69
 USE SHAPE_70
 USE SHAPE_71
 USE SHAPE_72
 USE SHAPE_73
] }
DEF TXFM_13 Transform {
  center 0 0 0
  rotation 0.57735027 0.57735027 0.57735027 2.0943951
  scale 1 1 1
  scaleOrientation 0 0 1 0
  translation 1.0137795 -0.63976378 0.098425197
 children [
 USE SHAPE_60
 USE SHAPE_61
 USE SHAPE_62
 USE SHAPE_63
 USE SHAPE_64
 USE SHAPE_65
 USE SHAPE_66
 USE SHAPE_67
 USE SHAPE_68
 USE SHAPE_69
 USE SHAPE_70
 USE SHAPE_71
 USE SHAPE_72
 USE SHAPE_73
] }
DEF TXFM_14 Transform {
  center 0 0 0
  rotation 0.57735027 0.57735027 0.57735027 2.0943951
  scale 1 1 1
  scaleOrientation 0 0 1 0
  translation 1.0137795 -0.38385827 0.098425197
 children [
 USE SHAPE_60
 USE SHAPE_61
 USE SHAPE_62
 USE SHAPE_63
 USE SHAPE_64
 USE SHAPE_65
 USE SHAPE_66
 USE SHAPE_67
 USE SHAPE_68
 USE SHAPE_69
 USE SHAPE_70
 USE SHAPE_71
 USE SHAPE_72
 USE SHAPE_73
] }
DEF TXFM_15 Transform {
  center 0 0 0
  rotation 0.57735027 0.57735027 0.57735027 2.0943951
  scale 1 1 1
  scaleOrientation 0 0 1 0
  translation 1.0137795 -0.12795276 0.098425197
 children [
 USE SHAPE_60
 USE SHAPE_61
 USE SHAPE_62
 USE SHAPE_63
 USE SHAPE_64
 USE SHAPE_65
 USE SHAPE_66
 USE SHAPE_67
 USE SHAPE_68
 USE SHAPE_69
 USE SHAPE_70
 USE SHAPE_71
 USE SHAPE_72
 USE SHAPE_73
] }
DEF TXFM_16 Transform {
  center 0 0 0
  rotation 0.57735027 0.57735027 0.57735027 2.0943951
  scale 1 1 1
  scaleOrientation 0 0 1 0
  translation 1.0137795 0.12795276 0.098425197
 children [
 USE SHAPE_60
 USE SHAPE_61
 USE SHAPE_62
 USE SHAPE_63
 USE SHAPE_64
 USE SHAPE_65
 USE SHAPE_66
 USE SHAPE_67
 USE SHAPE_68
 USE SHAPE_69
 USE SHAPE_70
 USE SHAPE_71
 USE SHAPE_72
 USE SHAPE_73
] }
DEF TXFM_17 Transform {
  center 0 0 0
  rotation 0.57735027 0.57735027 0.57735027 2.0943951
  scale 1 1 1
  scaleOrientation 0 0 1 0
  translation 1.0137795 0.38385827 0.098425197
 children [
 USE SHAPE_60
 USE SHAPE_61
 USE SHAPE_62
 USE SHAPE_63
 USE SHAPE_64
 USE SHAPE_65
 USE SHAPE_66
 USE SHAPE_67
 USE SHAPE_68
 USE SHAPE_69
 USE SHAPE_70
 USE SHAPE_71
 USE SHAPE_72
 USE SHAPE_73
] }
DEF TXFM_18 Transform {
  center 0 0 0
  rotation 0.57735027 0.57735027 0.57735027 2.0943951
  scale 1 1 1
  scaleOrientation 0 0 1 0
  translation 1.0137795 0.63976378 0.098425197
 children [
 USE SHAPE_60
 USE SHAPE_61
 USE SHAPE_62
 USE SHAPE_63
 USE SHAPE_64
 USE SHAPE_65
 USE SHAPE_66
 USE SHAPE_67
 USE SHAPE_68
 USE SHAPE_69
 USE SHAPE_70
 USE SHAPE_71
 USE SHAPE_72
 USE SHAPE_73
] }
DEF TXFM_19 Transform {
  center 0 0 0
  rotation 0.57735027 0.57735027 0.57735027 2.0943951
  scale 1 1 1
  scaleOrientation 0 0 1 0
  translation 1.0137795 0.89566929 0.098425197
 children [
 USE SHAPE_60
 USE SHAPE_61
 USE SHAPE_62
 USE SHAPE_63
 USE SHAPE_64
 USE SHAPE_65
 USE SHAPE_66
 USE SHAPE_67
 USE SHAPE_68
 USE SHAPE_69
 USE SHAPE_70
 USE SHAPE_71
 USE SHAPE_72
 USE SHAPE_73
] }
] }
] }
