(footprint "MPL-AL6050-4R7" (version 20221018) (generator pcbnew)
  (layer "F.Cu")
  (attr smd)
  (fp_text reference "REF**" (at 0 -3.81 unlocked) (layer "F.SilkS")
      (effects (font (size 1 1) (thickness 0.15)))
    (tstamp 13bbfffc-affb-4b43-9eb1-f2ed90a8a919)
  )
  (fp_text value "MPL-AL6050-4R7" (at 0 -1.27 unlocked) (layer "F.Fab")
      (effects (font (size 1 1) (thickness 0.15)))
    (tstamp 71f8d568-0f23-4ff2-8e60-1600ce517a48)
  )
  (fp_text user "${REFERENCE}" (at 0 1.27 unlocked) (layer "F.Fab")
      (effects (font (size 1 1) (thickness 0.15)))
    (tstamp 7c00778a-4692-4f9b-87d5-2d355077ce1e)
  )
  (fp_rect (start -3.3 -3.3) (end 3.3 3.3)
    (stroke (width 0.12) (type solid)) (fill none) (layer "F.SilkS") (tstamp 852dabbf-de45-4470-8176-59d37a754407))
  (fp_rect (start -3.4 -3.4) (end 3.4 3.4)
    (stroke (width 0.08) (type solid)) (fill none) (layer "F.CrtYd") (tstamp 0217dfc4-fc13-4699-99ad-d9948522648e))
  (pad "1" smd rect (at -2.025 0) (size 1.55 5.6) (layers "F.Cu" "F.Paste" "F.Mask") (tstamp 6b25f522-8e2d-4cd8-9d5d-a2b80f60133b))
  (pad "2" smd rect (at 2.025 0) (size 1.55 5.6) (layers "F.Cu" "F.Paste" "F.Mask") (tstamp 9ccf03e8-755a-4cd9-96fc-30e1d08fa253))
  (model "${KIPRJMOD}/library/Inductor_MPS/MPL-AL6050-4R7.step"
    (offset (xyz 0 0 0))
    (scale (xyz 1 1 1))
    (rotate (xyz 0 0 0))
  )
)
