(footprint "D8_TEX" (version 20211014) (generator pcbnew)
  (layer "F.Cu")
  (tags "TPS7201QD ")
  (attr smd)
  (fp_text reference "REF**" (at 0 0 unlocked) (layer F.SilkS)
    (effects (font (size 1 1) (thickness 0.15)))
  )
  (fp_text value D8_TEX (at 0 0 unlocked) (layer F.Fab)
    (effects (font (size 1 1) (thickness 0.15)))
  )
  (fp_text user "${REFERENCE}" (at 0 0 unlocked) (layer F.Fab)
    (effects (font (size 1 1) (thickness 0.15)))
  )
  (fp_text user "*" (at -3.07975 -3.6068) (layer F.SilkS)
    (effects (font (size 1 1) (thickness 0.15)))
  )
  (fp_text user "*" (at -1.6129 -2.4257) (layer F.Fab)
    (effects (font (size 1 1) (thickness 0.15)))
  )
  (fp_line (start -1.9939 -1.651) (end -1.9939 -2.159) (layer "F.Fab") (width 0.0254))
  (fp_line (start -1.9939 -2.159) (end -3.0988 -2.159) (layer "F.Fab") (width 0.0254))
  (fp_line (start -3.0988 -2.159) (end -3.0988 -1.651) (layer "F.Fab") (width 0.0254))
  (fp_line (start -3.0988 -1.651) (end -1.9939 -1.651) (layer "F.Fab") (width 0.0254))
  (fp_line (start -1.9939 -0.381) (end -1.9939 -0.889) (layer "F.Fab") (width 0.0254))
  (fp_line (start -1.9939 -0.889) (end -3.0988 -0.889) (layer "F.Fab") (width 0.0254))
  (fp_line (start -3.0988 -0.889) (end -3.0988 -0.381) (layer "F.Fab") (width 0.0254))
  (fp_line (start -3.0988 -0.381) (end -1.9939 -0.381) (layer "F.Fab") (width 0.0254))
  (fp_line (start -1.9939 0.889) (end -1.9939 0.381) (layer "F.Fab") (width 0.0254))
  (fp_line (start -1.9939 0.381) (end -3.0988 0.381) (layer "F.Fab") (width 0.0254))
  (fp_line (start -3.0988 0.381) (end -3.0988 0.889) (layer "F.Fab") (width 0.0254))
  (fp_line (start -3.0988 0.889) (end -1.9939 0.889) (layer "F.Fab") (width 0.0254))
  (fp_line (start -1.9939 2.159) (end -1.9939 1.651) (layer "F.Fab") (width 0.0254))
  (fp_line (start -1.9939 1.651) (end -3.0988 1.651) (layer "F.Fab") (width 0.0254))
  (fp_line (start -3.0988 1.651) (end -3.0988 2.159) (layer "F.Fab") (width 0.0254))
  (fp_line (start -3.0988 2.159) (end -1.9939 2.159) (layer "F.Fab") (width 0.0254))
  (fp_line (start 1.9939 1.651) (end 1.9939 2.159) (layer "F.Fab") (width 0.0254))
  (fp_line (start 1.9939 2.159) (end 3.0988 2.159) (layer "F.Fab") (width 0.0254))
  (fp_line (start 3.0988 2.159) (end 3.0988 1.651) (layer "F.Fab") (width 0.0254))
  (fp_line (start 3.0988 1.651) (end 1.9939 1.651) (layer "F.Fab") (width 0.0254))
  (fp_line (start 1.9939 0.381) (end 1.9939 0.889) (layer "F.Fab") (width 0.0254))
  (fp_line (start 1.9939 0.889) (end 3.0988 0.889) (layer "F.Fab") (width 0.0254))
  (fp_line (start 3.0988 0.889) (end 3.0988 0.381) (layer "F.Fab") (width 0.0254))
  (fp_line (start 3.0988 0.381) (end 1.9939 0.381) (layer "F.Fab") (width 0.0254))
  (fp_line (start 1.9939 -0.889) (end 1.9939 -0.381) (layer "F.Fab") (width 0.0254))
  (fp_line (start 1.9939 -0.381) (end 3.0988 -0.381) (layer "F.Fab") (width 0.0254))
  (fp_line (start 3.0988 -0.381) (end 3.0988 -0.889) (layer "F.Fab") (width 0.0254))
  (fp_line (start 3.0988 -0.889) (end 1.9939 -0.889) (layer "F.Fab") (width 0.0254))
  (fp_line (start 1.9939 -2.159) (end 1.9939 -1.651) (layer "F.Fab") (width 0.0254))
  (fp_line (start 1.9939 -1.651) (end 3.0988 -1.651) (layer "F.Fab") (width 0.0254))
  (fp_line (start 3.0988 -1.651) (end 3.0988 -2.159) (layer "F.Fab") (width 0.0254))
  (fp_line (start 3.0988 -2.159) (end 1.9939 -2.159) (layer "F.Fab") (width 0.0254))
  (fp_line (start -4.1656 2.6924) (end -4.1656 -2.6924) (layer "F.CrtYd") (width 0.1524))
  (fp_line (start -4.1656 -2.6924) (end -2.5019 -2.6924) (layer "F.CrtYd") (width 0.1524))
  (fp_line (start -2.5019 -2.6924) (end -2.5019 -3.0099) (layer "F.CrtYd") (width 0.1524))
  (fp_line (start -2.5019 -3.0099) (end 2.5019 -3.0099) (layer "F.CrtYd") (width 0.1524))
  (fp_line (start 2.5019 -3.0099) (end 2.5019 -2.6924) (layer "F.CrtYd") (width 0.1524))
  (fp_line (start 4.1656 -2.6924) (end 2.5019 -2.6924) (layer "F.CrtYd") (width 0.1524))
  (fp_line (start 4.1656 -2.6924) (end 4.1656 2.6924) (layer "F.CrtYd") (width 0.1524))
  (fp_line (start 4.1656 2.6924) (end 2.5019 2.6924) (layer "F.CrtYd") (width 0.1524))
  (fp_line (start 2.5019 2.6924) (end 2.5019 3.0099) (layer "F.CrtYd") (width 0.1524))
  (fp_line (start 2.5019 3.0099) (end -2.5019 3.0099) (layer "F.CrtYd") (width 0.1524))
  (fp_line (start -2.5019 3.0099) (end -2.5019 2.6924) (layer "F.CrtYd") (width 0.1524))
  (fp_line (start -4.1656 2.6924) (end -2.5019 2.6924) (layer "F.CrtYd") (width 0.1524))
  (fp_text user "*" (at -3.07975 -3.6068 unlocked) (layer "F.SilkS")
    (effects (font (size 1 1) (thickness 0.15)))
  )
  (fp_text user "*" (at -1.6129 -2.4257 unlocked) (layer "F.Fab")
    (effects (font (size 1 1) (thickness 0.15)))
  )
  (fp_line (start -2.1209 2.6289) (end 2.1209 2.6289) (layer "F.SilkS") (width 0.1524))
  (fp_line (start 2.1209 -2.6289) (end -2.1209 -2.6289) (layer "F.SilkS") (width 0.1524))
  (fp_line (start -1.9939 2.5019) (end 1.9939 2.5019) (layer "F.Fab") (width 0.0254))
  (fp_line (start 1.9939 2.5019) (end 1.9939 -2.5019) (layer "F.Fab") (width 0.0254))
  (fp_line (start 1.9939 -2.5019) (end -1.9939 -2.5019) (layer "F.Fab") (width 0.0254))
  (fp_line (start -1.9939 -2.5019) (end -1.9939 2.5019) (layer "F.Fab") (width 0.0254))
  (fp_arc (start 0.3048 -2.5019) (mid 0 -2.1971) (end -0.3048 -2.5019) (layer "F.Fab") (width 0.0254))
  (pad "1" smd rect (at -2.82575 -1.905) (size 1.6637 0.5588) (layers "F.Cu" "F.Paste" "F.Mask"))
  (pad "2" smd rect (at -2.82575 -0.635) (size 1.6637 0.5588) (layers "F.Cu" "F.Paste" "F.Mask"))
  (pad "3" smd rect (at -2.82575 0.635) (size 1.6637 0.5588) (layers "F.Cu" "F.Paste" "F.Mask"))
  (pad "4" smd rect (at -2.82575 1.905) (size 1.6637 0.5588) (layers "F.Cu" "F.Paste" "F.Mask"))
  (pad "5" smd rect (at 2.82575 1.905) (size 1.6637 0.5588) (layers "F.Cu" "F.Paste" "F.Mask"))
  (pad "6" smd rect (at 2.82575 0.635) (size 1.6637 0.5588) (layers "F.Cu" "F.Paste" "F.Mask"))
  (pad "7" smd rect (at 2.82575 -0.635) (size 1.6637 0.5588) (layers "F.Cu" "F.Paste" "F.Mask"))
  (pad "8" smd rect (at 2.82575 -1.905) (size 1.6637 0.5588) (layers "F.Cu" "F.Paste" "F.Mask"))
)
