(kicad_symbol_lib (version 20220914) (generator kicad_symbol_editor)
  (symbol "INA190" (pin_names (offset 0.127)) (in_bom yes) (on_board yes)
    (property "Reference" "U?" (at 3.81 3.81 0)
      (effects (font (size 1.27 1.27)) (justify left))
    )
    (property "Value" "INA190" (at 3.81 -2.54 0)
      (effects (font (size 1.27 1.27)) (justify left))
    )
    (property "Footprint" "Package_TO_SOT_SMD:SOT-363_SC-70-6_Handsoldering" (at 0 -20.955 0)
      (effects (font (size 1.27 1.27)) hide)
    )
    (property "Datasheet" "https://www.ti.com/lit/ds/symlink/ina190.pdf?ts=1706040586303&ref_url=https%253A%252F%252Fwww.google.com%252F" (at 25.4 25.4 0)
      (effects (font (size 1.27 1.27)) hide)
    )
    (property "ki_keywords" "current monitor shunt sensor bidirectional" (at 0 0 0)
      (effects (font (size 1.27 1.27)) hide)
    )
    (property "ki_description" "High-Accuracy, Wide Common-Mode Range, Bidirectional Current Shunt Monitors, Zero-Drift Series, 50V/V, SOIC-8/VSSOP-8" (at 0 0 0)
      (effects (font (size 1.27 1.27)) hide)
    )
    (property "ki_fp_filters" "SOIC*3.9x4.9mm*P1.27mm* MSOP*3x3mm*P0.65mm*" (at 0 0 0)
      (effects (font (size 1.27 1.27)) hide)
    )
    (symbol "INA190_0_1"
      (polyline
        (pts
          (xy 5.08 0)
          (xy -5.08 5.08)
          (xy -5.08 -5.08)
          (xy 5.08 0)
        )
        (stroke (width 0.254) (type default))
        (fill (type background))
      )
    )
    (symbol "INA190_1_1"
      (pin input line (at 0 -6.35 90) (length 3.81)
        (name "REF" (effects (font (size 1.27 1.27))))
        (number "1" (effects (font (size 1.27 1.27))))
      )
      (pin power_in line (at -2.54 -7.62 90) (length 3.81)
        (name "GND" (effects (font (size 1.27 1.27))))
        (number "2" (effects (font (size 1.27 1.27))))
      )
      (pin input line (at -2.54 7.62 270) (length 3.81)
        (name "Vs" (effects (font (size 1.27 1.27))))
        (number "3" (effects (font (size 1.27 1.27))))
      )
      (pin input line (at -7.62 2.54 0) (length 2.54)
        (name "+" (effects (font (size 1.27 1.27))))
        (number "4" (effects (font (size 1.27 1.27))))
      )
      (pin input line (at -7.62 -2.54 0) (length 2.54)
        (name "-" (effects (font (size 1.27 1.27))))
        (number "5" (effects (font (size 1.27 1.27))))
      )
      (pin output line (at 7.62 0 180) (length 2.54)
        (name "~" (effects (font (size 1.27 1.27))))
        (number "6" (effects (font (size 1.27 1.27))))
      )
    )
  )
  (symbol "INA281-Q1" (pin_names (offset 0.127)) (in_bom yes) (on_board yes)
    (property "Reference" "U?" (at 3.81 3.81 0)
      (effects (font (size 1.27 1.27)) (justify left))
    )
    (property "Value" "INA281-Q1" (at 3.81 -2.54 0)
      (effects (font (size 1.27 1.27)) (justify left))
    )
    (property "Footprint" "Package_SO:TSOP-5_1.65x3.05mm_P0.95mm" (at 0 0 0)
      (effects (font (size 1.27 1.27)) hide)
    )
    (property "Datasheet" "https://www.ti.com/lit/ds/symlink/ina281-q1.pdf" (at 25.4 25.4 0)
      (effects (font (size 1.27 1.27)) hide)
    )
    (property "ki_keywords" "current monitor shunt sensor bidirectional" (at 0 0 0)
      (effects (font (size 1.27 1.27)) hide)
    )
    (property "ki_description" "High-Accuracy, Wide Common-Mode Range, Bidirectional Current Shunt Monitors, Zero-Drift Series, 50V/V, SOIC-8/VSSOP-8" (at 0 0 0)
      (effects (font (size 1.27 1.27)) hide)
    )
    (property "ki_fp_filters" "SOIC*3.9x4.9mm*P1.27mm* MSOP*3x3mm*P0.65mm*" (at 0 0 0)
      (effects (font (size 1.27 1.27)) hide)
    )
    (symbol "INA281-Q1_0_1"
      (polyline
        (pts
          (xy 5.08 0)
          (xy -5.08 5.08)
          (xy -5.08 -5.08)
          (xy 5.08 0)
        )
        (stroke (width 0.254) (type default))
        (fill (type background))
      )
    )
    (symbol "INA281-Q1_1_1"
      (pin output line (at 7.62 0 180) (length 2.54)
        (name "~" (effects (font (size 1.27 1.27))))
        (number "1" (effects (font (size 1.27 1.27))))
      )
      (pin power_in line (at -2.54 -7.62 90) (length 3.81)
        (name "GND" (effects (font (size 1.27 1.27))))
        (number "2" (effects (font (size 1.27 1.27))))
      )
      (pin input line (at -7.62 2.54 0) (length 2.54)
        (name "+" (effects (font (size 1.27 1.27))))
        (number "3" (effects (font (size 1.27 1.27))))
      )
      (pin input line (at -7.62 -2.54 0) (length 2.54)
        (name "-" (effects (font (size 1.27 1.27))))
        (number "4" (effects (font (size 1.27 1.27))))
      )
      (pin input line (at -2.54 7.62 270) (length 3.81)
        (name "Vs" (effects (font (size 1.27 1.27))))
        (number "5" (effects (font (size 1.27 1.27))))
      )
    )
  )
)
