(kicad_symbol_lib (version 20220914) (generator kicad_symbol_editor)
  (symbol "ARF6-08-S-RA-TR" (pin_names (offset 1.016)) (in_bom yes) (on_board yes)
    (property "Reference" "J" (at 0 20.955 0)
      (effects (font (size 1.27 1.27)))
    )
    (property "Value" "ARF6-08-S-RA-TR" (at 0 19.05 0)
      (effects (font (size 1.27 1.27)))
    )
    (property "Footprint" "SAMTEC_ARF6-08-S-RA-TR" (at 0.635 -38.1 0)
      (effects (font (size 1.27 1.27)) (justify bottom) hide)
    )
    (property "Datasheet" "" (at 0 0 0)
      (effects (font (size 1.27 1.27)) hide)
    )
    (property "MF" "Samtec" (at 0.635 -33.02 0)
      (effects (font (size 1.27 1.27)) (justify bottom) hide)
    )
    (property "DESCRIPTION" "Samtec" (at 0.635 -41.91 0)
      (effects (font (size 1.27 1.27)) (justify bottom) hide)
    )
    (property "PACKAGE" "None" (at 0.635 -44.45 0)
      (effects (font (size 1.27 1.27)) (justify bottom) hide)
    )
    (property "PRICE" "None" (at 0.635 -46.355 0)
      (effects (font (size 1.27 1.27)) (justify bottom) hide)
    )
    (property "MP" "ARF6-08-L-RA-TR" (at 0.635 -48.895 0)
      (effects (font (size 1.27 1.27)) (justify bottom) hide)
    )
    (property "AVAILABILITY" "Bad" (at 0.635 -40.005 0)
      (effects (font (size 1.27 1.27)) (justify bottom) hide)
    )
    (property "PURCHASE-URL" "https://pricing.snapeda.com/search/part/ARF6-08-L-RA-TR/?ref=eda" (at 0.635 -35.56 0)
      (effects (font (size 1.27 1.27)) (justify bottom) hide)
    )
    (symbol "ARF6-08-S-RA-TR_0_0"
      (rectangle (start -7.62 17.78) (end 7.62 -17.78)
        (stroke (width 0.254) (type default))
        (fill (type background))
      )
      (pin passive line (at -12.7 15.24 0) (length 5.08)
        (name "1" (effects (font (size 1.016 1.016))))
        (number "1" (effects (font (size 1.016 1.016))))
      )
      (pin passive line (at 12.7 5.08 180) (length 5.08)
        (name "10" (effects (font (size 1.016 1.016))))
        (number "10" (effects (font (size 1.016 1.016))))
      )
      (pin passive line (at -12.7 2.54 0) (length 5.08)
        (name "11" (effects (font (size 1.016 1.016))))
        (number "11" (effects (font (size 1.016 1.016))))
      )
      (pin passive line (at 12.7 2.54 180) (length 5.08)
        (name "12" (effects (font (size 1.016 1.016))))
        (number "12" (effects (font (size 1.016 1.016))))
      )
      (pin passive line (at -12.7 0 0) (length 5.08)
        (name "13" (effects (font (size 1.016 1.016))))
        (number "13" (effects (font (size 1.016 1.016))))
      )
      (pin passive line (at 12.7 0 180) (length 5.08)
        (name "14" (effects (font (size 1.016 1.016))))
        (number "14" (effects (font (size 1.016 1.016))))
      )
      (pin passive line (at -12.7 -2.54 0) (length 5.08)
        (name "15" (effects (font (size 1.016 1.016))))
        (number "15" (effects (font (size 1.016 1.016))))
      )
      (pin passive line (at 12.7 -2.54 180) (length 5.08)
        (name "16" (effects (font (size 1.016 1.016))))
        (number "16" (effects (font (size 1.016 1.016))))
      )
      (pin passive line (at -12.7 -5.08 0) (length 5.08)
        (name "17" (effects (font (size 1.016 1.016))))
        (number "17" (effects (font (size 1.016 1.016))))
      )
      (pin passive line (at 12.7 -5.08 180) (length 5.08)
        (name "18" (effects (font (size 1.016 1.016))))
        (number "18" (effects (font (size 1.016 1.016))))
      )
      (pin passive line (at -12.7 -7.62 0) (length 5.08)
        (name "19" (effects (font (size 1.016 1.016))))
        (number "19" (effects (font (size 1.016 1.016))))
      )
      (pin passive line (at 12.7 15.24 180) (length 5.08)
        (name "2" (effects (font (size 1.016 1.016))))
        (number "2" (effects (font (size 1.016 1.016))))
      )
      (pin passive line (at 12.7 -7.62 180) (length 5.08)
        (name "20" (effects (font (size 1.016 1.016))))
        (number "20" (effects (font (size 1.016 1.016))))
      )
      (pin passive line (at -12.7 -10.16 0) (length 5.08)
        (name "21" (effects (font (size 1.016 1.016))))
        (number "21" (effects (font (size 1.016 1.016))))
      )
      (pin passive line (at 12.7 -10.16 180) (length 5.08)
        (name "22" (effects (font (size 1.016 1.016))))
        (number "22" (effects (font (size 1.016 1.016))))
      )
      (pin passive line (at -12.7 -12.7 0) (length 5.08)
        (name "23" (effects (font (size 1.016 1.016))))
        (number "23" (effects (font (size 1.016 1.016))))
      )
      (pin passive line (at 12.7 -12.7 180) (length 5.08)
        (name "24" (effects (font (size 1.016 1.016))))
        (number "24" (effects (font (size 1.016 1.016))))
      )
      (pin passive line (at -12.7 -15.24 0) (length 5.08)
        (name "25" (effects (font (size 1.016 1.016))))
        (number "25" (effects (font (size 1.016 1.016))))
      )
      (pin passive line (at 12.7 -15.24 180) (length 5.08)
        (name "26" (effects (font (size 1.016 1.016))))
        (number "26" (effects (font (size 1.016 1.016))))
      )
      (pin passive line (at -12.7 12.7 0) (length 5.08)
        (name "3" (effects (font (size 1.016 1.016))))
        (number "3" (effects (font (size 1.016 1.016))))
      )
      (pin passive line (at 12.7 12.7 180) (length 5.08)
        (name "4" (effects (font (size 1.016 1.016))))
        (number "4" (effects (font (size 1.016 1.016))))
      )
      (pin passive line (at -12.7 10.16 0) (length 5.08)
        (name "5" (effects (font (size 1.016 1.016))))
        (number "5" (effects (font (size 1.016 1.016))))
      )
      (pin passive line (at 12.7 10.16 180) (length 5.08)
        (name "6" (effects (font (size 1.016 1.016))))
        (number "6" (effects (font (size 1.016 1.016))))
      )
      (pin passive line (at -12.7 7.62 0) (length 5.08)
        (name "7" (effects (font (size 1.016 1.016))))
        (number "7" (effects (font (size 1.016 1.016))))
      )
      (pin passive line (at 12.7 7.62 180) (length 5.08)
        (name "8" (effects (font (size 1.016 1.016))))
        (number "8" (effects (font (size 1.016 1.016))))
      )
      (pin passive line (at -12.7 5.08 0) (length 5.08)
        (name "9" (effects (font (size 1.016 1.016))))
        (number "9" (effects (font (size 1.016 1.016))))
      )
    )
    (symbol "ARF6-08-S-RA-TR_1_0"
      (pin passive line (at -1.27 -22.86 90) (length 5.08)
        (name "P1" (effects (font (size 1.016 1.016))))
        (number "P1" (effects (font (size 1.016 1.016))))
      )
      (pin passive line (at 1.27 -22.86 90) (length 5.08)
        (name "P2" (effects (font (size 1.016 1.016))))
        (number "P2" (effects (font (size 1.016 1.016))))
      )
    )
  )
)
